ISO-10303-21;
HEADER;
/* Generated by software containing ST-Developer
 * from STEP Tools, Inc. (www.steptools.com) 
 */

FILE_DESCRIPTION(
/* description */ (''),
/* implementation_level */ '2;1');

FILE_NAME(
/* name */ 
'C:/Users/home/Google Drive/Sourcetree/axis_i3/Mechanics/Rev_1/STP/Mea
nwell_PSU_Case_Rear_Rev_1.step',
/* time_stamp */ '2019-07-12T14:16:27+01:00',
/* author */ (''),
/* organization */ (''),
/* preprocessor_version */ 'ST-DEVELOPER v18',
/* originating_system */ 'Autodesk Translation Framework v8.2.0.1029',
/* authorisation */ '');

FILE_SCHEMA (('AUTOMOTIVE_DESIGN { 1 0 10303 214 3 1 1 }'));
ENDSEC;

DATA;
#10=MECHANICAL_DESIGN_GEOMETRIC_PRESENTATION_REPRESENTATION('',(#13),#1422);
#11=SHAPE_REPRESENTATION_RELATIONSHIP('SRR','None',#1429,#12);
#12=ADVANCED_BREP_SHAPE_REPRESENTATION('',(#14),#1421);
#13=STYLED_ITEM('',(#1438),#14);
#14=MANIFOLD_SOLID_BREP('Meanwell_PSU_Case_Rear_Rev_1',#888);
#15=FACE_BOUND('',#114,.T.);
#16=FACE_BOUND('',#115,.T.);
#17=FACE_BOUND('',#116,.T.);
#18=FACE_BOUND('',#120,.T.);
#19=FACE_BOUND('',#121,.T.);
#20=FACE_BOUND('',#122,.T.);
#21=FACE_BOUND('',#123,.T.);
#22=PLANE('',#905);
#23=PLANE('',#909);
#24=PLANE('',#910);
#25=PLANE('',#911);
#26=PLANE('',#912);
#27=PLANE('',#913);
#28=PLANE('',#920);
#29=PLANE('',#921);
#30=PLANE('',#922);
#31=PLANE('',#923);
#32=PLANE('',#924);
#33=PLANE('',#925);
#34=PLANE('',#926);
#35=PLANE('',#927);
#36=PLANE('',#928);
#37=PLANE('',#929);
#38=PLANE('',#930);
#39=PLANE('',#931);
#40=PLANE('',#932);
#41=PLANE('',#933);
#42=PLANE('',#934);
#43=PLANE('',#935);
#44=PLANE('',#936);
#45=PLANE('',#937);
#46=PLANE('',#938);
#47=PLANE('',#939);
#48=PLANE('',#940);
#49=PLANE('',#941);
#50=PLANE('',#942);
#51=PLANE('',#943);
#52=PLANE('',#944);
#53=PLANE('',#945);
#54=PLANE('',#946);
#55=PLANE('',#947);
#56=PLANE('',#948);
#57=PLANE('',#949);
#58=PLANE('',#950);
#59=PLANE('',#951);
#60=FACE_OUTER_BOUND('',#102,.T.);
#61=FACE_OUTER_BOUND('',#103,.T.);
#62=FACE_OUTER_BOUND('',#104,.T.);
#63=FACE_OUTER_BOUND('',#105,.T.);
#64=FACE_OUTER_BOUND('',#106,.T.);
#65=FACE_OUTER_BOUND('',#107,.T.);
#66=FACE_OUTER_BOUND('',#108,.T.);
#67=FACE_OUTER_BOUND('',#109,.T.);
#68=FACE_OUTER_BOUND('',#110,.T.);
#69=FACE_OUTER_BOUND('',#111,.T.);
#70=FACE_OUTER_BOUND('',#112,.T.);
#71=FACE_OUTER_BOUND('',#113,.T.);
#72=FACE_OUTER_BOUND('',#117,.T.);
#73=FACE_OUTER_BOUND('',#118,.T.);
#74=FACE_OUTER_BOUND('',#119,.T.);
#75=FACE_OUTER_BOUND('',#124,.T.);
#76=FACE_OUTER_BOUND('',#125,.T.);
#77=FACE_OUTER_BOUND('',#126,.T.);
#78=FACE_OUTER_BOUND('',#127,.T.);
#79=FACE_OUTER_BOUND('',#128,.T.);
#80=FACE_OUTER_BOUND('',#129,.T.);
#81=FACE_OUTER_BOUND('',#130,.T.);
#82=FACE_OUTER_BOUND('',#131,.T.);
#83=FACE_OUTER_BOUND('',#132,.T.);
#84=FACE_OUTER_BOUND('',#133,.T.);
#85=FACE_OUTER_BOUND('',#134,.T.);
#86=FACE_OUTER_BOUND('',#135,.T.);
#87=FACE_OUTER_BOUND('',#136,.T.);
#88=FACE_OUTER_BOUND('',#137,.T.);
#89=FACE_OUTER_BOUND('',#138,.T.);
#90=FACE_OUTER_BOUND('',#139,.T.);
#91=FACE_OUTER_BOUND('',#140,.T.);
#92=FACE_OUTER_BOUND('',#141,.T.);
#93=FACE_OUTER_BOUND('',#142,.T.);
#94=FACE_OUTER_BOUND('',#143,.T.);
#95=FACE_OUTER_BOUND('',#144,.T.);
#96=FACE_OUTER_BOUND('',#145,.T.);
#97=FACE_OUTER_BOUND('',#146,.T.);
#98=FACE_OUTER_BOUND('',#147,.T.);
#99=FACE_OUTER_BOUND('',#148,.T.);
#100=FACE_OUTER_BOUND('',#149,.T.);
#101=FACE_OUTER_BOUND('',#150,.T.);
#102=EDGE_LOOP('',(#596,#597,#598,#599));
#103=EDGE_LOOP('',(#600,#601,#602,#603));
#104=EDGE_LOOP('',(#604,#605,#606,#607));
#105=EDGE_LOOP('',(#608,#609,#610,#611));
#106=EDGE_LOOP('',(#612,#613,#614,#615));
#107=EDGE_LOOP('',(#616,#617,#618,#619));
#108=EDGE_LOOP('',(#620,#621,#622,#623));
#109=EDGE_LOOP('',(#624,#625,#626,#627));
#110=EDGE_LOOP('',(#628,#629,#630,#631));
#111=EDGE_LOOP('',(#632,#633,#634,#635));
#112=EDGE_LOOP('',(#636,#637,#638,#639));
#113=EDGE_LOOP('',(#640,#641,#642,#643,#644,#645,#646));
#114=EDGE_LOOP('',(#647));
#115=EDGE_LOOP('',(#648));
#116=EDGE_LOOP('',(#649,#650,#651,#652,#653,#654,#655,#656,#657,#658,#659,
#660,#661,#662,#663,#664,#665,#666,#667,#668));
#117=EDGE_LOOP('',(#669,#670,#671,#672));
#118=EDGE_LOOP('',(#673,#674,#675,#676,#677,#678));
#119=EDGE_LOOP('',(#679,#680,#681,#682,#683,#684,#685));
#120=EDGE_LOOP('',(#686,#687,#688,#689));
#121=EDGE_LOOP('',(#690));
#122=EDGE_LOOP('',(#691));
#123=EDGE_LOOP('',(#692,#693,#694,#695,#696,#697,#698,#699,#700,#701,#702,
#703));
#124=EDGE_LOOP('',(#704,#705,#706,#707));
#125=EDGE_LOOP('',(#708,#709,#710,#711));
#126=EDGE_LOOP('',(#712,#713,#714,#715,#716,#717));
#127=EDGE_LOOP('',(#718,#719,#720,#721,#722,#723,#724));
#128=EDGE_LOOP('',(#725,#726,#727,#728,#729,#730,#731,#732));
#129=EDGE_LOOP('',(#733,#734,#735,#736,#737,#738,#739,#740));
#130=EDGE_LOOP('',(#741,#742,#743,#744));
#131=EDGE_LOOP('',(#745,#746,#747,#748));
#132=EDGE_LOOP('',(#749,#750,#751,#752));
#133=EDGE_LOOP('',(#753,#754,#755,#756));
#134=EDGE_LOOP('',(#757,#758,#759,#760));
#135=EDGE_LOOP('',(#761,#762,#763,#764));
#136=EDGE_LOOP('',(#765,#766,#767,#768));
#137=EDGE_LOOP('',(#769,#770,#771,#772));
#138=EDGE_LOOP('',(#773,#774,#775,#776));
#139=EDGE_LOOP('',(#777,#778,#779,#780,#781,#782,#783,#784,#785));
#140=EDGE_LOOP('',(#786,#787,#788,#789));
#141=EDGE_LOOP('',(#790,#791,#792,#793));
#142=EDGE_LOOP('',(#794,#795,#796,#797));
#143=EDGE_LOOP('',(#798,#799,#800,#801,#802,#803));
#144=EDGE_LOOP('',(#804,#805,#806,#807));
#145=EDGE_LOOP('',(#808,#809,#810,#811,#812,#813,#814));
#146=EDGE_LOOP('',(#815,#816,#817,#818,#819,#820));
#147=EDGE_LOOP('',(#821,#822,#823,#824));
#148=EDGE_LOOP('',(#825,#826,#827,#828));
#149=EDGE_LOOP('',(#829,#830,#831,#832));
#150=EDGE_LOOP('',(#833,#834,#835,#836,#837,#838,#839,#840,#841));
#151=LINE('',#1175,#266);
#152=LINE('',#1178,#267);
#153=LINE('',#1181,#268);
#154=LINE('',#1183,#269);
#155=LINE('',#1184,#270);
#156=LINE('',#1189,#271);
#157=LINE('',#1192,#272);
#158=LINE('',#1193,#273);
#159=LINE('',#1198,#274);
#160=LINE('',#1200,#275);
#161=LINE('',#1202,#276);
#162=LINE('',#1203,#277);
#163=LINE('',#1206,#278);
#164=LINE('',#1208,#279);
#165=LINE('',#1209,#280);
#166=LINE('',#1212,#281);
#167=LINE('',#1214,#282);
#168=LINE('',#1215,#283);
#169=LINE('',#1220,#284);
#170=LINE('',#1226,#285);
#171=LINE('',#1231,#286);
#172=LINE('',#1233,#287);
#173=LINE('',#1235,#288);
#174=LINE('',#1236,#289);
#175=LINE('',#1239,#290);
#176=LINE('',#1240,#291);
#177=LINE('',#1242,#292);
#178=LINE('',#1244,#293);
#179=LINE('',#1245,#294);
#180=LINE('',#1248,#295);
#181=LINE('',#1250,#296);
#182=LINE('',#1252,#297);
#183=LINE('',#1254,#298);
#184=LINE('',#1256,#299);
#185=LINE('',#1258,#300);
#186=LINE('',#1260,#301);
#187=LINE('',#1262,#302);
#188=LINE('',#1264,#303);
#189=LINE('',#1266,#304);
#190=LINE('',#1268,#305);
#191=LINE('',#1270,#306);
#192=LINE('',#1272,#307);
#193=LINE('',#1274,#308);
#194=LINE('',#1276,#309);
#195=LINE('',#1278,#310);
#196=LINE('',#1280,#311);
#197=LINE('',#1282,#312);
#198=LINE('',#1284,#313);
#199=LINE('',#1285,#314);
#200=LINE('',#1288,#315);
#201=LINE('',#1289,#316);
#202=LINE('',#1292,#317);
#203=LINE('',#1293,#318);
#204=LINE('',#1296,#319);
#205=LINE('',#1297,#320);
#206=LINE('',#1298,#321);
#207=LINE('',#1301,#322);
#208=LINE('',#1303,#323);
#209=LINE('',#1305,#324);
#210=LINE('',#1307,#325);
#211=LINE('',#1309,#326);
#212=LINE('',#1311,#327);
#213=LINE('',#1313,#328);
#214=LINE('',#1315,#329);
#215=LINE('',#1317,#330);
#216=LINE('',#1319,#331);
#217=LINE('',#1321,#332);
#218=LINE('',#1322,#333);
#219=LINE('',#1324,#334);
#220=LINE('',#1329,#335);
#221=LINE('',#1331,#336);
#222=LINE('',#1333,#337);
#223=LINE('',#1335,#338);
#224=LINE('',#1337,#339);
#225=LINE('',#1338,#340);
#226=LINE('',#1342,#341);
#227=LINE('',#1344,#342);
#228=LINE('',#1346,#343);
#229=LINE('',#1348,#344);
#230=LINE('',#1350,#345);
#231=LINE('',#1351,#346);
#232=LINE('',#1352,#347);
#233=LINE('',#1356,#348);
#234=LINE('',#1358,#349);
#235=LINE('',#1360,#350);
#236=LINE('',#1362,#351);
#237=LINE('',#1364,#352);
#238=LINE('',#1366,#353);
#239=LINE('',#1368,#354);
#240=LINE('',#1369,#355);
#241=LINE('',#1371,#356);
#242=LINE('',#1372,#357);
#243=LINE('',#1374,#358);
#244=LINE('',#1376,#359);
#245=LINE('',#1378,#360);
#246=LINE('',#1379,#361);
#247=LINE('',#1381,#362);
#248=LINE('',#1383,#363);
#249=LINE('',#1384,#364);
#250=LINE('',#1386,#365);
#251=LINE('',#1389,#366);
#252=LINE('',#1392,#367);
#253=LINE('',#1394,#368);
#254=LINE('',#1396,#369);
#255=LINE('',#1397,#370);
#256=LINE('',#1398,#371);
#257=LINE('',#1400,#372);
#258=LINE('',#1402,#373);
#259=LINE('',#1404,#374);
#260=LINE('',#1407,#375);
#261=LINE('',#1409,#376);
#262=LINE('',#1411,#377);
#263=LINE('',#1413,#378);
#264=LINE('',#1415,#379);
#265=LINE('',#1417,#380);
#266=VECTOR('',#958,10.);
#267=VECTOR('',#961,10.);
#268=VECTOR('',#964,10.);
#269=VECTOR('',#965,10.);
#270=VECTOR('',#966,10.);
#271=VECTOR('',#971,10.);
#272=VECTOR('',#976,10.);
#273=VECTOR('',#977,10.);
#274=VECTOR('',#982,10.);
#275=VECTOR('',#983,10.);
#276=VECTOR('',#984,10.);
#277=VECTOR('',#985,10.);
#278=VECTOR('',#988,10.);
#279=VECTOR('',#989,10.);
#280=VECTOR('',#990,10.);
#281=VECTOR('',#993,10.);
#282=VECTOR('',#994,10.);
#283=VECTOR('',#995,10.);
#284=VECTOR('',#1000,1.75000000000001);
#285=VECTOR('',#1007,1.74999999999997);
#286=VECTOR('',#1012,10.);
#287=VECTOR('',#1013,10.);
#288=VECTOR('',#1014,10.);
#289=VECTOR('',#1015,10.);
#290=VECTOR('',#1018,10.);
#291=VECTOR('',#1019,10.);
#292=VECTOR('',#1020,10.);
#293=VECTOR('',#1021,10.);
#294=VECTOR('',#1022,10.);
#295=VECTOR('',#1023,10.);
#296=VECTOR('',#1024,10.);
#297=VECTOR('',#1025,10.);
#298=VECTOR('',#1026,10.);
#299=VECTOR('',#1027,10.);
#300=VECTOR('',#1028,10.);
#301=VECTOR('',#1029,10.);
#302=VECTOR('',#1030,10.);
#303=VECTOR('',#1031,10.);
#304=VECTOR('',#1032,10.);
#305=VECTOR('',#1033,10.);
#306=VECTOR('',#1034,10.);
#307=VECTOR('',#1035,10.);
#308=VECTOR('',#1036,10.);
#309=VECTOR('',#1037,10.);
#310=VECTOR('',#1038,10.);
#311=VECTOR('',#1039,10.);
#312=VECTOR('',#1040,10.);
#313=VECTOR('',#1041,10.);
#314=VECTOR('',#1042,10.);
#315=VECTOR('',#1045,10.);
#316=VECTOR('',#1046,10.);
#317=VECTOR('',#1049,10.);
#318=VECTOR('',#1050,10.);
#319=VECTOR('',#1053,10.);
#320=VECTOR('',#1054,10.);
#321=VECTOR('',#1055,10.);
#322=VECTOR('',#1056,10.);
#323=VECTOR('',#1057,10.);
#324=VECTOR('',#1058,10.);
#325=VECTOR('',#1059,10.);
#326=VECTOR('',#1060,10.);
#327=VECTOR('',#1061,10.);
#328=VECTOR('',#1062,10.);
#329=VECTOR('',#1063,10.);
#330=VECTOR('',#1064,10.);
#331=VECTOR('',#1065,10.);
#332=VECTOR('',#1066,10.);
#333=VECTOR('',#1067,10.);
#334=VECTOR('',#1070,10.);
#335=VECTOR('',#1077,10.);
#336=VECTOR('',#1078,10.);
#337=VECTOR('',#1079,10.);
#338=VECTOR('',#1080,10.);
#339=VECTOR('',#1081,10.);
#340=VECTOR('',#1082,10.);
#341=VECTOR('',#1085,10.);
#342=VECTOR('',#1086,10.);
#343=VECTOR('',#1087,10.);
#344=VECTOR('',#1088,10.);
#345=VECTOR('',#1089,10.);
#346=VECTOR('',#1090,10.);
#347=VECTOR('',#1091,10.);
#348=VECTOR('',#1094,10.);
#349=VECTOR('',#1095,10.);
#350=VECTOR('',#1096,10.);
#351=VECTOR('',#1097,10.);
#352=VECTOR('',#1098,10.);
#353=VECTOR('',#1099,10.);
#354=VECTOR('',#1100,10.);
#355=VECTOR('',#1101,10.);
#356=VECTOR('',#1104,10.);
#357=VECTOR('',#1105,10.);
#358=VECTOR('',#1108,10.);
#359=VECTOR('',#1111,10.);
#360=VECTOR('',#1114,10.);
#361=VECTOR('',#1115,10.);
#362=VECTOR('',#1118,10.);
#363=VECTOR('',#1121,10.);
#364=VECTOR('',#1122,10.);
#365=VECTOR('',#1125,10.);
#366=VECTOR('',#1130,10.);
#367=VECTOR('',#1133,10.);
#368=VECTOR('',#1134,10.);
#369=VECTOR('',#1135,10.);
#370=VECTOR('',#1136,10.);
#371=VECTOR('',#1137,10.);
#372=VECTOR('',#1140,10.);
#373=VECTOR('',#1143,10.);
#374=VECTOR('',#1146,10.);
#375=VECTOR('',#1151,10.);
#376=VECTOR('',#1154,10.);
#377=VECTOR('',#1157,10.);
#378=VECTOR('',#1160,10.);
#379=VECTOR('',#1163,10.);
#380=VECTOR('',#1166,10.);
#381=CIRCLE('',#903,0.499999999999972);
#382=CIRCLE('',#904,0.499999999999972);
#383=CIRCLE('',#907,0.499999999999972);
#384=CIRCLE('',#908,0.499999999999972);
#385=CIRCLE('',#915,1.75000000000001);
#386=CIRCLE('',#916,1.75000000000001);
#387=CIRCLE('',#918,1.74999999999997);
#388=CIRCLE('',#919,1.74999999999997);
#389=VERTEX_POINT('',#1171);
#390=VERTEX_POINT('',#1172);
#391=VERTEX_POINT('',#1174);
#392=VERTEX_POINT('',#1176);
#393=VERTEX_POINT('',#1180);
#394=VERTEX_POINT('',#1182);
#395=VERTEX_POINT('',#1186);
#396=VERTEX_POINT('',#1188);
#397=VERTEX_POINT('',#1196);
#398=VERTEX_POINT('',#1197);
#399=VERTEX_POINT('',#1199);
#400=VERTEX_POINT('',#1201);
#401=VERTEX_POINT('',#1205);
#402=VERTEX_POINT('',#1207);
#403=VERTEX_POINT('',#1211);
#404=VERTEX_POINT('',#1213);
#405=VERTEX_POINT('',#1217);
#406=VERTEX_POINT('',#1219);
#407=VERTEX_POINT('',#1223);
#408=VERTEX_POINT('',#1225);
#409=VERTEX_POINT('',#1229);
#410=VERTEX_POINT('',#1230);
#411=VERTEX_POINT('',#1232);
#412=VERTEX_POINT('',#1234);
#413=VERTEX_POINT('',#1238);
#414=VERTEX_POINT('',#1241);
#415=VERTEX_POINT('',#1243);
#416=VERTEX_POINT('',#1246);
#417=VERTEX_POINT('',#1247);
#418=VERTEX_POINT('',#1249);
#419=VERTEX_POINT('',#1251);
#420=VERTEX_POINT('',#1253);
#421=VERTEX_POINT('',#1255);
#422=VERTEX_POINT('',#1257);
#423=VERTEX_POINT('',#1259);
#424=VERTEX_POINT('',#1261);
#425=VERTEX_POINT('',#1263);
#426=VERTEX_POINT('',#1265);
#427=VERTEX_POINT('',#1267);
#428=VERTEX_POINT('',#1269);
#429=VERTEX_POINT('',#1271);
#430=VERTEX_POINT('',#1273);
#431=VERTEX_POINT('',#1275);
#432=VERTEX_POINT('',#1277);
#433=VERTEX_POINT('',#1279);
#434=VERTEX_POINT('',#1281);
#435=VERTEX_POINT('',#1283);
#436=VERTEX_POINT('',#1287);
#437=VERTEX_POINT('',#1291);
#438=VERTEX_POINT('',#1295);
#439=VERTEX_POINT('',#1299);
#440=VERTEX_POINT('',#1300);
#441=VERTEX_POINT('',#1302);
#442=VERTEX_POINT('',#1304);
#443=VERTEX_POINT('',#1306);
#444=VERTEX_POINT('',#1308);
#445=VERTEX_POINT('',#1310);
#446=VERTEX_POINT('',#1312);
#447=VERTEX_POINT('',#1314);
#448=VERTEX_POINT('',#1316);
#449=VERTEX_POINT('',#1318);
#450=VERTEX_POINT('',#1320);
#451=VERTEX_POINT('',#1328);
#452=VERTEX_POINT('',#1330);
#453=VERTEX_POINT('',#1332);
#454=VERTEX_POINT('',#1334);
#455=VERTEX_POINT('',#1336);
#456=VERTEX_POINT('',#1340);
#457=VERTEX_POINT('',#1341);
#458=VERTEX_POINT('',#1343);
#459=VERTEX_POINT('',#1345);
#460=VERTEX_POINT('',#1347);
#461=VERTEX_POINT('',#1349);
#462=VERTEX_POINT('',#1354);
#463=VERTEX_POINT('',#1355);
#464=VERTEX_POINT('',#1357);
#465=VERTEX_POINT('',#1359);
#466=VERTEX_POINT('',#1361);
#467=VERTEX_POINT('',#1363);
#468=VERTEX_POINT('',#1365);
#469=VERTEX_POINT('',#1367);
#470=VERTEX_POINT('',#1391);
#471=VERTEX_POINT('',#1393);
#472=VERTEX_POINT('',#1395);
#473=EDGE_CURVE('',#389,#390,#381,.T.);
#474=EDGE_CURVE('',#389,#391,#151,.T.);
#475=EDGE_CURVE('',#391,#392,#382,.T.);
#476=EDGE_CURVE('',#390,#392,#152,.T.);
#477=EDGE_CURVE('',#393,#389,#153,.T.);
#478=EDGE_CURVE('',#393,#394,#154,.T.);
#479=EDGE_CURVE('',#394,#391,#155,.T.);
#480=EDGE_CURVE('',#395,#393,#383,.T.);
#481=EDGE_CURVE('',#395,#396,#156,.T.);
#482=EDGE_CURVE('',#396,#394,#384,.T.);
#483=EDGE_CURVE('',#390,#395,#157,.T.);
#484=EDGE_CURVE('',#392,#396,#158,.T.);
#485=EDGE_CURVE('',#397,#398,#159,.T.);
#486=EDGE_CURVE('',#397,#399,#160,.T.);
#487=EDGE_CURVE('',#400,#399,#161,.T.);
#488=EDGE_CURVE('',#398,#400,#162,.T.);
#489=EDGE_CURVE('',#401,#397,#163,.T.);
#490=EDGE_CURVE('',#402,#401,#164,.T.);
#491=EDGE_CURVE('',#399,#402,#165,.T.);
#492=EDGE_CURVE('',#403,#401,#166,.T.);
#493=EDGE_CURVE('',#404,#403,#167,.T.);
#494=EDGE_CURVE('',#402,#404,#168,.T.);
#495=EDGE_CURVE('',#405,#405,#385,.T.);
#496=EDGE_CURVE('',#405,#406,#169,.T.);
#497=EDGE_CURVE('',#406,#406,#386,.T.);
#498=EDGE_CURVE('',#407,#407,#387,.T.);
#499=EDGE_CURVE('',#407,#408,#170,.T.);
#500=EDGE_CURVE('',#408,#408,#388,.T.);
#501=EDGE_CURVE('',#409,#410,#171,.T.);
#502=EDGE_CURVE('',#411,#409,#172,.T.);
#503=EDGE_CURVE('',#412,#411,#173,.T.);
#504=EDGE_CURVE('',#410,#412,#174,.T.);
#505=EDGE_CURVE('',#413,#412,#175,.F.);
#506=EDGE_CURVE('',#413,#404,#176,.T.);
#507=EDGE_CURVE('',#403,#414,#177,.T.);
#508=EDGE_CURVE('',#415,#414,#178,.T.);
#509=EDGE_CURVE('',#410,#415,#179,.F.);
#510=EDGE_CURVE('',#416,#417,#180,.T.);
#511=EDGE_CURVE('',#417,#418,#181,.T.);
#512=EDGE_CURVE('',#418,#419,#182,.T.);
#513=EDGE_CURVE('',#420,#419,#183,.T.);
#514=EDGE_CURVE('',#420,#421,#184,.T.);
#515=EDGE_CURVE('',#421,#422,#185,.T.);
#516=EDGE_CURVE('',#422,#423,#186,.T.);
#517=EDGE_CURVE('',#423,#424,#187,.T.);
#518=EDGE_CURVE('',#424,#425,#188,.T.);
#519=EDGE_CURVE('',#425,#426,#189,.T.);
#520=EDGE_CURVE('',#426,#427,#190,.T.);
#521=EDGE_CURVE('',#427,#428,#191,.T.);
#522=EDGE_CURVE('',#428,#429,#192,.T.);
#523=EDGE_CURVE('',#430,#429,#193,.T.);
#524=EDGE_CURVE('',#430,#431,#194,.T.);
#525=EDGE_CURVE('',#431,#432,#195,.T.);
#526=EDGE_CURVE('',#432,#433,#196,.T.);
#527=EDGE_CURVE('',#433,#434,#197,.T.);
#528=EDGE_CURVE('',#434,#435,#198,.T.);
#529=EDGE_CURVE('',#435,#416,#199,.T.);
#530=EDGE_CURVE('',#436,#411,#200,.T.);
#531=EDGE_CURVE('',#436,#413,#201,.F.);
#532=EDGE_CURVE('',#437,#398,#202,.T.);
#533=EDGE_CURVE('',#437,#414,#203,.T.);
#534=EDGE_CURVE('',#438,#409,#204,.T.);
#535=EDGE_CURVE('',#437,#438,#205,.T.);
#536=EDGE_CURVE('',#400,#436,#206,.T.);
#537=EDGE_CURVE('',#439,#440,#207,.T.);
#538=EDGE_CURVE('',#440,#441,#208,.T.);
#539=EDGE_CURVE('',#441,#442,#209,.T.);
#540=EDGE_CURVE('',#442,#443,#210,.T.);
#541=EDGE_CURVE('',#443,#444,#211,.T.);
#542=EDGE_CURVE('',#444,#445,#212,.T.);
#543=EDGE_CURVE('',#445,#446,#213,.T.);
#544=EDGE_CURVE('',#446,#447,#214,.T.);
#545=EDGE_CURVE('',#447,#448,#215,.T.);
#546=EDGE_CURVE('',#448,#449,#216,.T.);
#547=EDGE_CURVE('',#449,#450,#217,.T.);
#548=EDGE_CURVE('',#450,#439,#218,.T.);
#549=EDGE_CURVE('',#438,#415,#219,.F.);
#550=EDGE_CURVE('',#451,#445,#220,.T.);
#551=EDGE_CURVE('',#451,#452,#221,.T.);
#552=EDGE_CURVE('',#452,#453,#222,.T.);
#553=EDGE_CURVE('',#453,#454,#223,.T.);
#554=EDGE_CURVE('',#454,#455,#224,.T.);
#555=EDGE_CURVE('',#446,#455,#225,.T.);
#556=EDGE_CURVE('',#456,#457,#226,.T.);
#557=EDGE_CURVE('',#458,#456,#227,.T.);
#558=EDGE_CURVE('',#459,#458,#228,.T.);
#559=EDGE_CURVE('',#460,#459,#229,.T.);
#560=EDGE_CURVE('',#461,#460,#230,.T.);
#561=EDGE_CURVE('',#455,#461,#231,.T.);
#562=EDGE_CURVE('',#457,#454,#232,.T.);
#563=EDGE_CURVE('',#462,#463,#233,.T.);
#564=EDGE_CURVE('',#464,#462,#234,.T.);
#565=EDGE_CURVE('',#465,#464,#235,.T.);
#566=EDGE_CURVE('',#466,#465,#236,.T.);
#567=EDGE_CURVE('',#467,#466,#237,.T.);
#568=EDGE_CURVE('',#468,#467,#238,.T.);
#569=EDGE_CURVE('',#469,#468,#239,.T.);
#570=EDGE_CURVE('',#463,#469,#240,.T.);
#571=EDGE_CURVE('',#428,#460,#241,.T.);
#572=EDGE_CURVE('',#427,#461,#242,.T.);
#573=EDGE_CURVE('',#459,#429,#243,.T.);
#574=EDGE_CURVE('',#430,#458,#244,.T.);
#575=EDGE_CURVE('',#421,#467,#245,.T.);
#576=EDGE_CURVE('',#420,#468,#246,.T.);
#577=EDGE_CURVE('',#422,#466,#247,.T.);
#578=EDGE_CURVE('',#418,#463,#248,.T.);
#579=EDGE_CURVE('',#417,#462,#249,.T.);
#580=EDGE_CURVE('',#469,#419,#250,.T.);
#581=EDGE_CURVE('',#431,#456,#251,.T.);
#582=EDGE_CURVE('',#470,#465,#252,.T.);
#583=EDGE_CURVE('',#471,#470,#253,.T.);
#584=EDGE_CURVE('',#472,#471,#254,.T.);
#585=EDGE_CURVE('',#472,#439,#255,.T.);
#586=EDGE_CURVE('',#423,#450,#256,.T.);
#587=EDGE_CURVE('',#424,#449,#257,.T.);
#588=EDGE_CURVE('',#425,#448,#258,.T.);
#589=EDGE_CURVE('',#426,#447,#259,.T.);
#590=EDGE_CURVE('',#432,#457,#260,.T.);
#591=EDGE_CURVE('',#440,#464,#261,.T.);
#592=EDGE_CURVE('',#416,#441,#262,.T.);
#593=EDGE_CURVE('',#435,#442,#263,.T.);
#594=EDGE_CURVE('',#434,#443,#264,.T.);
#595=EDGE_CURVE('',#433,#444,#265,.T.);
#596=ORIENTED_EDGE('',*,*,#473,.F.);
#597=ORIENTED_EDGE('',*,*,#474,.T.);
#598=ORIENTED_EDGE('',*,*,#475,.T.);
#599=ORIENTED_EDGE('',*,*,#476,.F.);
#600=ORIENTED_EDGE('',*,*,#477,.F.);
#601=ORIENTED_EDGE('',*,*,#478,.T.);
#602=ORIENTED_EDGE('',*,*,#479,.T.);
#603=ORIENTED_EDGE('',*,*,#474,.F.);
#604=ORIENTED_EDGE('',*,*,#480,.F.);
#605=ORIENTED_EDGE('',*,*,#481,.T.);
#606=ORIENTED_EDGE('',*,*,#482,.T.);
#607=ORIENTED_EDGE('',*,*,#478,.F.);
#608=ORIENTED_EDGE('',*,*,#483,.F.);
#609=ORIENTED_EDGE('',*,*,#476,.T.);
#610=ORIENTED_EDGE('',*,*,#484,.T.);
#611=ORIENTED_EDGE('',*,*,#481,.F.);
#612=ORIENTED_EDGE('',*,*,#484,.F.);
#613=ORIENTED_EDGE('',*,*,#475,.F.);
#614=ORIENTED_EDGE('',*,*,#479,.F.);
#615=ORIENTED_EDGE('',*,*,#482,.F.);
#616=ORIENTED_EDGE('',*,*,#485,.F.);
#617=ORIENTED_EDGE('',*,*,#486,.T.);
#618=ORIENTED_EDGE('',*,*,#487,.F.);
#619=ORIENTED_EDGE('',*,*,#488,.F.);
#620=ORIENTED_EDGE('',*,*,#489,.F.);
#621=ORIENTED_EDGE('',*,*,#490,.F.);
#622=ORIENTED_EDGE('',*,*,#491,.F.);
#623=ORIENTED_EDGE('',*,*,#486,.F.);
#624=ORIENTED_EDGE('',*,*,#490,.T.);
#625=ORIENTED_EDGE('',*,*,#492,.F.);
#626=ORIENTED_EDGE('',*,*,#493,.F.);
#627=ORIENTED_EDGE('',*,*,#494,.F.);
#628=ORIENTED_EDGE('',*,*,#495,.F.);
#629=ORIENTED_EDGE('',*,*,#496,.T.);
#630=ORIENTED_EDGE('',*,*,#497,.F.);
#631=ORIENTED_EDGE('',*,*,#496,.F.);
#632=ORIENTED_EDGE('',*,*,#498,.F.);
#633=ORIENTED_EDGE('',*,*,#499,.T.);
#634=ORIENTED_EDGE('',*,*,#500,.F.);
#635=ORIENTED_EDGE('',*,*,#499,.F.);
#636=ORIENTED_EDGE('',*,*,#501,.F.);
#637=ORIENTED_EDGE('',*,*,#502,.F.);
#638=ORIENTED_EDGE('',*,*,#503,.F.);
#639=ORIENTED_EDGE('',*,*,#504,.F.);
#640=ORIENTED_EDGE('',*,*,#504,.T.);
#641=ORIENTED_EDGE('',*,*,#505,.F.);
#642=ORIENTED_EDGE('',*,*,#506,.T.);
#643=ORIENTED_EDGE('',*,*,#493,.T.);
#644=ORIENTED_EDGE('',*,*,#507,.T.);
#645=ORIENTED_EDGE('',*,*,#508,.F.);
#646=ORIENTED_EDGE('',*,*,#509,.F.);
#647=ORIENTED_EDGE('',*,*,#497,.T.);
#648=ORIENTED_EDGE('',*,*,#500,.T.);
#649=ORIENTED_EDGE('',*,*,#510,.T.);
#650=ORIENTED_EDGE('',*,*,#511,.T.);
#651=ORIENTED_EDGE('',*,*,#512,.T.);
#652=ORIENTED_EDGE('',*,*,#513,.F.);
#653=ORIENTED_EDGE('',*,*,#514,.T.);
#654=ORIENTED_EDGE('',*,*,#515,.T.);
#655=ORIENTED_EDGE('',*,*,#516,.T.);
#656=ORIENTED_EDGE('',*,*,#517,.T.);
#657=ORIENTED_EDGE('',*,*,#518,.T.);
#658=ORIENTED_EDGE('',*,*,#519,.T.);
#659=ORIENTED_EDGE('',*,*,#520,.T.);
#660=ORIENTED_EDGE('',*,*,#521,.T.);
#661=ORIENTED_EDGE('',*,*,#522,.T.);
#662=ORIENTED_EDGE('',*,*,#523,.F.);
#663=ORIENTED_EDGE('',*,*,#524,.T.);
#664=ORIENTED_EDGE('',*,*,#525,.T.);
#665=ORIENTED_EDGE('',*,*,#526,.T.);
#666=ORIENTED_EDGE('',*,*,#527,.T.);
#667=ORIENTED_EDGE('',*,*,#528,.T.);
#668=ORIENTED_EDGE('',*,*,#529,.T.);
#669=ORIENTED_EDGE('',*,*,#503,.T.);
#670=ORIENTED_EDGE('',*,*,#530,.F.);
#671=ORIENTED_EDGE('',*,*,#531,.T.);
#672=ORIENTED_EDGE('',*,*,#505,.T.);
#673=ORIENTED_EDGE('',*,*,#492,.T.);
#674=ORIENTED_EDGE('',*,*,#489,.T.);
#675=ORIENTED_EDGE('',*,*,#485,.T.);
#676=ORIENTED_EDGE('',*,*,#532,.F.);
#677=ORIENTED_EDGE('',*,*,#533,.T.);
#678=ORIENTED_EDGE('',*,*,#507,.F.);
#679=ORIENTED_EDGE('',*,*,#502,.T.);
#680=ORIENTED_EDGE('',*,*,#534,.F.);
#681=ORIENTED_EDGE('',*,*,#535,.F.);
#682=ORIENTED_EDGE('',*,*,#532,.T.);
#683=ORIENTED_EDGE('',*,*,#488,.T.);
#684=ORIENTED_EDGE('',*,*,#536,.T.);
#685=ORIENTED_EDGE('',*,*,#530,.T.);
#686=ORIENTED_EDGE('',*,*,#473,.T.);
#687=ORIENTED_EDGE('',*,*,#483,.T.);
#688=ORIENTED_EDGE('',*,*,#480,.T.);
#689=ORIENTED_EDGE('',*,*,#477,.T.);
#690=ORIENTED_EDGE('',*,*,#495,.T.);
#691=ORIENTED_EDGE('',*,*,#498,.T.);
#692=ORIENTED_EDGE('',*,*,#537,.T.);
#693=ORIENTED_EDGE('',*,*,#538,.T.);
#694=ORIENTED_EDGE('',*,*,#539,.T.);
#695=ORIENTED_EDGE('',*,*,#540,.T.);
#696=ORIENTED_EDGE('',*,*,#541,.T.);
#697=ORIENTED_EDGE('',*,*,#542,.T.);
#698=ORIENTED_EDGE('',*,*,#543,.T.);
#699=ORIENTED_EDGE('',*,*,#544,.T.);
#700=ORIENTED_EDGE('',*,*,#545,.T.);
#701=ORIENTED_EDGE('',*,*,#546,.T.);
#702=ORIENTED_EDGE('',*,*,#547,.T.);
#703=ORIENTED_EDGE('',*,*,#548,.T.);
#704=ORIENTED_EDGE('',*,*,#501,.T.);
#705=ORIENTED_EDGE('',*,*,#509,.T.);
#706=ORIENTED_EDGE('',*,*,#549,.F.);
#707=ORIENTED_EDGE('',*,*,#534,.T.);
#708=ORIENTED_EDGE('',*,*,#508,.T.);
#709=ORIENTED_EDGE('',*,*,#533,.F.);
#710=ORIENTED_EDGE('',*,*,#535,.T.);
#711=ORIENTED_EDGE('',*,*,#549,.T.);
#712=ORIENTED_EDGE('',*,*,#494,.T.);
#713=ORIENTED_EDGE('',*,*,#506,.F.);
#714=ORIENTED_EDGE('',*,*,#531,.F.);
#715=ORIENTED_EDGE('',*,*,#536,.F.);
#716=ORIENTED_EDGE('',*,*,#487,.T.);
#717=ORIENTED_EDGE('',*,*,#491,.T.);
#718=ORIENTED_EDGE('',*,*,#543,.F.);
#719=ORIENTED_EDGE('',*,*,#550,.F.);
#720=ORIENTED_EDGE('',*,*,#551,.T.);
#721=ORIENTED_EDGE('',*,*,#552,.T.);
#722=ORIENTED_EDGE('',*,*,#553,.T.);
#723=ORIENTED_EDGE('',*,*,#554,.T.);
#724=ORIENTED_EDGE('',*,*,#555,.F.);
#725=ORIENTED_EDGE('',*,*,#556,.F.);
#726=ORIENTED_EDGE('',*,*,#557,.F.);
#727=ORIENTED_EDGE('',*,*,#558,.F.);
#728=ORIENTED_EDGE('',*,*,#559,.F.);
#729=ORIENTED_EDGE('',*,*,#560,.F.);
#730=ORIENTED_EDGE('',*,*,#561,.F.);
#731=ORIENTED_EDGE('',*,*,#554,.F.);
#732=ORIENTED_EDGE('',*,*,#562,.F.);
#733=ORIENTED_EDGE('',*,*,#563,.F.);
#734=ORIENTED_EDGE('',*,*,#564,.F.);
#735=ORIENTED_EDGE('',*,*,#565,.F.);
#736=ORIENTED_EDGE('',*,*,#566,.F.);
#737=ORIENTED_EDGE('',*,*,#567,.F.);
#738=ORIENTED_EDGE('',*,*,#568,.F.);
#739=ORIENTED_EDGE('',*,*,#569,.F.);
#740=ORIENTED_EDGE('',*,*,#570,.F.);
#741=ORIENTED_EDGE('',*,*,#560,.T.);
#742=ORIENTED_EDGE('',*,*,#571,.F.);
#743=ORIENTED_EDGE('',*,*,#521,.F.);
#744=ORIENTED_EDGE('',*,*,#572,.T.);
#745=ORIENTED_EDGE('',*,*,#559,.T.);
#746=ORIENTED_EDGE('',*,*,#573,.T.);
#747=ORIENTED_EDGE('',*,*,#522,.F.);
#748=ORIENTED_EDGE('',*,*,#571,.T.);
#749=ORIENTED_EDGE('',*,*,#558,.T.);
#750=ORIENTED_EDGE('',*,*,#574,.F.);
#751=ORIENTED_EDGE('',*,*,#523,.T.);
#752=ORIENTED_EDGE('',*,*,#573,.F.);
#753=ORIENTED_EDGE('',*,*,#568,.T.);
#754=ORIENTED_EDGE('',*,*,#575,.F.);
#755=ORIENTED_EDGE('',*,*,#514,.F.);
#756=ORIENTED_EDGE('',*,*,#576,.T.);
#757=ORIENTED_EDGE('',*,*,#567,.T.);
#758=ORIENTED_EDGE('',*,*,#577,.F.);
#759=ORIENTED_EDGE('',*,*,#515,.F.);
#760=ORIENTED_EDGE('',*,*,#575,.T.);
#761=ORIENTED_EDGE('',*,*,#563,.T.);
#762=ORIENTED_EDGE('',*,*,#578,.F.);
#763=ORIENTED_EDGE('',*,*,#511,.F.);
#764=ORIENTED_EDGE('',*,*,#579,.T.);
#765=ORIENTED_EDGE('',*,*,#570,.T.);
#766=ORIENTED_EDGE('',*,*,#580,.T.);
#767=ORIENTED_EDGE('',*,*,#512,.F.);
#768=ORIENTED_EDGE('',*,*,#578,.T.);
#769=ORIENTED_EDGE('',*,*,#569,.T.);
#770=ORIENTED_EDGE('',*,*,#576,.F.);
#771=ORIENTED_EDGE('',*,*,#513,.T.);
#772=ORIENTED_EDGE('',*,*,#580,.F.);
#773=ORIENTED_EDGE('',*,*,#557,.T.);
#774=ORIENTED_EDGE('',*,*,#581,.F.);
#775=ORIENTED_EDGE('',*,*,#524,.F.);
#776=ORIENTED_EDGE('',*,*,#574,.T.);
#777=ORIENTED_EDGE('',*,*,#516,.F.);
#778=ORIENTED_EDGE('',*,*,#577,.T.);
#779=ORIENTED_EDGE('',*,*,#566,.T.);
#780=ORIENTED_EDGE('',*,*,#582,.F.);
#781=ORIENTED_EDGE('',*,*,#583,.F.);
#782=ORIENTED_EDGE('',*,*,#584,.F.);
#783=ORIENTED_EDGE('',*,*,#585,.T.);
#784=ORIENTED_EDGE('',*,*,#548,.F.);
#785=ORIENTED_EDGE('',*,*,#586,.F.);
#786=ORIENTED_EDGE('',*,*,#517,.F.);
#787=ORIENTED_EDGE('',*,*,#586,.T.);
#788=ORIENTED_EDGE('',*,*,#547,.F.);
#789=ORIENTED_EDGE('',*,*,#587,.F.);
#790=ORIENTED_EDGE('',*,*,#518,.F.);
#791=ORIENTED_EDGE('',*,*,#587,.T.);
#792=ORIENTED_EDGE('',*,*,#546,.F.);
#793=ORIENTED_EDGE('',*,*,#588,.F.);
#794=ORIENTED_EDGE('',*,*,#519,.F.);
#795=ORIENTED_EDGE('',*,*,#588,.T.);
#796=ORIENTED_EDGE('',*,*,#545,.F.);
#797=ORIENTED_EDGE('',*,*,#589,.F.);
#798=ORIENTED_EDGE('',*,*,#520,.F.);
#799=ORIENTED_EDGE('',*,*,#589,.T.);
#800=ORIENTED_EDGE('',*,*,#544,.F.);
#801=ORIENTED_EDGE('',*,*,#555,.T.);
#802=ORIENTED_EDGE('',*,*,#561,.T.);
#803=ORIENTED_EDGE('',*,*,#572,.F.);
#804=ORIENTED_EDGE('',*,*,#556,.T.);
#805=ORIENTED_EDGE('',*,*,#590,.F.);
#806=ORIENTED_EDGE('',*,*,#525,.F.);
#807=ORIENTED_EDGE('',*,*,#581,.T.);
#808=ORIENTED_EDGE('',*,*,#537,.F.);
#809=ORIENTED_EDGE('',*,*,#585,.F.);
#810=ORIENTED_EDGE('',*,*,#584,.T.);
#811=ORIENTED_EDGE('',*,*,#583,.T.);
#812=ORIENTED_EDGE('',*,*,#582,.T.);
#813=ORIENTED_EDGE('',*,*,#565,.T.);
#814=ORIENTED_EDGE('',*,*,#591,.F.);
#815=ORIENTED_EDGE('',*,*,#538,.F.);
#816=ORIENTED_EDGE('',*,*,#591,.T.);
#817=ORIENTED_EDGE('',*,*,#564,.T.);
#818=ORIENTED_EDGE('',*,*,#579,.F.);
#819=ORIENTED_EDGE('',*,*,#510,.F.);
#820=ORIENTED_EDGE('',*,*,#592,.T.);
#821=ORIENTED_EDGE('',*,*,#539,.F.);
#822=ORIENTED_EDGE('',*,*,#592,.F.);
#823=ORIENTED_EDGE('',*,*,#529,.F.);
#824=ORIENTED_EDGE('',*,*,#593,.T.);
#825=ORIENTED_EDGE('',*,*,#540,.F.);
#826=ORIENTED_EDGE('',*,*,#593,.F.);
#827=ORIENTED_EDGE('',*,*,#528,.F.);
#828=ORIENTED_EDGE('',*,*,#594,.T.);
#829=ORIENTED_EDGE('',*,*,#541,.F.);
#830=ORIENTED_EDGE('',*,*,#594,.F.);
#831=ORIENTED_EDGE('',*,*,#527,.F.);
#832=ORIENTED_EDGE('',*,*,#595,.T.);
#833=ORIENTED_EDGE('',*,*,#542,.F.);
#834=ORIENTED_EDGE('',*,*,#595,.F.);
#835=ORIENTED_EDGE('',*,*,#526,.F.);
#836=ORIENTED_EDGE('',*,*,#590,.T.);
#837=ORIENTED_EDGE('',*,*,#562,.T.);
#838=ORIENTED_EDGE('',*,*,#553,.F.);
#839=ORIENTED_EDGE('',*,*,#552,.F.);
#840=ORIENTED_EDGE('',*,*,#551,.F.);
#841=ORIENTED_EDGE('',*,*,#550,.T.);
#842=CYLINDRICAL_SURFACE('',#902,0.499999999999972);
#843=CYLINDRICAL_SURFACE('',#906,0.499999999999972);
#844=CYLINDRICAL_SURFACE('',#914,1.75000000000001);
#845=CYLINDRICAL_SURFACE('',#917,1.74999999999997);
#846=ADVANCED_FACE('',(#60),#842,.F.);
#847=ADVANCED_FACE('',(#61),#22,.F.);
#848=ADVANCED_FACE('',(#62),#843,.F.);
#849=ADVANCED_FACE('',(#63),#23,.F.);
#850=ADVANCED_FACE('',(#64),#24,.T.);
#851=ADVANCED_FACE('',(#65),#25,.T.);
#852=ADVANCED_FACE('',(#66),#26,.T.);
#853=ADVANCED_FACE('',(#67),#27,.F.);
#854=ADVANCED_FACE('',(#68),#844,.F.);
#855=ADVANCED_FACE('',(#69),#845,.F.);
#856=ADVANCED_FACE('',(#70),#28,.F.);
#857=ADVANCED_FACE('',(#71,#15,#16,#17),#29,.F.);
#858=ADVANCED_FACE('',(#72),#30,.F.);
#859=ADVANCED_FACE('',(#73),#31,.F.);
#860=ADVANCED_FACE('',(#74,#18,#19,#20,#21),#32,.T.);
#861=ADVANCED_FACE('',(#75),#33,.T.);
#862=ADVANCED_FACE('',(#76),#34,.T.);
#863=ADVANCED_FACE('',(#77),#35,.T.);
#864=ADVANCED_FACE('',(#78),#36,.F.);
#865=ADVANCED_FACE('',(#79),#37,.F.);
#866=ADVANCED_FACE('',(#80),#38,.F.);
#867=ADVANCED_FACE('',(#81),#39,.F.);
#868=ADVANCED_FACE('',(#82),#40,.F.);
#869=ADVANCED_FACE('',(#83),#41,.T.);
#870=ADVANCED_FACE('',(#84),#42,.F.);
#871=ADVANCED_FACE('',(#85),#43,.F.);
#872=ADVANCED_FACE('',(#86),#44,.F.);
#873=ADVANCED_FACE('',(#87),#45,.F.);
#874=ADVANCED_FACE('',(#88),#46,.T.);
#875=ADVANCED_FACE('',(#89),#47,.F.);
#876=ADVANCED_FACE('',(#90),#48,.F.);
#877=ADVANCED_FACE('',(#91),#49,.F.);
#878=ADVANCED_FACE('',(#92),#50,.F.);
#879=ADVANCED_FACE('',(#93),#51,.F.);
#880=ADVANCED_FACE('',(#94),#52,.F.);
#881=ADVANCED_FACE('',(#95),#53,.F.);
#882=ADVANCED_FACE('',(#96),#54,.F.);
#883=ADVANCED_FACE('',(#97),#55,.F.);
#884=ADVANCED_FACE('',(#98),#56,.F.);
#885=ADVANCED_FACE('',(#99),#57,.F.);
#886=ADVANCED_FACE('',(#100),#58,.F.);
#887=ADVANCED_FACE('',(#101),#59,.F.);
#888=CLOSED_SHELL('',(#846,#847,#848,#849,#850,#851,#852,#853,#854,#855,
#856,#857,#858,#859,#860,#861,#862,#863,#864,#865,#866,#867,#868,#869,#870,
#871,#872,#873,#874,#875,#876,#877,#878,#879,#880,#881,#882,#883,#884,#885,
#886,#887));
#889=DERIVED_UNIT_ELEMENT(#891,1.);
#890=DERIVED_UNIT_ELEMENT(#1424,3.);
#891=(
MASS_UNIT()
NAMED_UNIT(*)
SI_UNIT(.KILO.,.GRAM.)
);
#892=DERIVED_UNIT((#889,#890));
#893=MEASURE_REPRESENTATION_ITEM('density measure',
POSITIVE_RATIO_MEASURE(7850.),#892);
#894=PROPERTY_DEFINITION_REPRESENTATION(#899,#896);
#895=PROPERTY_DEFINITION_REPRESENTATION(#900,#897);
#896=REPRESENTATION('material name',(#898),#1421);
#897=REPRESENTATION('density',(#893),#1421);
#898=DESCRIPTIVE_REPRESENTATION_ITEM('Steel','Steel');
#899=PROPERTY_DEFINITION('material property','material name',#1431);
#900=PROPERTY_DEFINITION('material property','density of part',#1431);
#901=AXIS2_PLACEMENT_3D('placement',#1169,#952,#953);
#902=AXIS2_PLACEMENT_3D('',#1170,#954,#955);
#903=AXIS2_PLACEMENT_3D('',#1173,#956,#957);
#904=AXIS2_PLACEMENT_3D('',#1177,#959,#960);
#905=AXIS2_PLACEMENT_3D('',#1179,#962,#963);
#906=AXIS2_PLACEMENT_3D('',#1185,#967,#968);
#907=AXIS2_PLACEMENT_3D('',#1187,#969,#970);
#908=AXIS2_PLACEMENT_3D('',#1190,#972,#973);
#909=AXIS2_PLACEMENT_3D('',#1191,#974,#975);
#910=AXIS2_PLACEMENT_3D('',#1194,#978,#979);
#911=AXIS2_PLACEMENT_3D('',#1195,#980,#981);
#912=AXIS2_PLACEMENT_3D('',#1204,#986,#987);
#913=AXIS2_PLACEMENT_3D('',#1210,#991,#992);
#914=AXIS2_PLACEMENT_3D('',#1216,#996,#997);
#915=AXIS2_PLACEMENT_3D('',#1218,#998,#999);
#916=AXIS2_PLACEMENT_3D('',#1221,#1001,#1002);
#917=AXIS2_PLACEMENT_3D('',#1222,#1003,#1004);
#918=AXIS2_PLACEMENT_3D('',#1224,#1005,#1006);
#919=AXIS2_PLACEMENT_3D('',#1227,#1008,#1009);
#920=AXIS2_PLACEMENT_3D('',#1228,#1010,#1011);
#921=AXIS2_PLACEMENT_3D('',#1237,#1016,#1017);
#922=AXIS2_PLACEMENT_3D('',#1286,#1043,#1044);
#923=AXIS2_PLACEMENT_3D('',#1290,#1047,#1048);
#924=AXIS2_PLACEMENT_3D('',#1294,#1051,#1052);
#925=AXIS2_PLACEMENT_3D('',#1323,#1068,#1069);
#926=AXIS2_PLACEMENT_3D('',#1325,#1071,#1072);
#927=AXIS2_PLACEMENT_3D('',#1326,#1073,#1074);
#928=AXIS2_PLACEMENT_3D('',#1327,#1075,#1076);
#929=AXIS2_PLACEMENT_3D('',#1339,#1083,#1084);
#930=AXIS2_PLACEMENT_3D('',#1353,#1092,#1093);
#931=AXIS2_PLACEMENT_3D('',#1370,#1102,#1103);
#932=AXIS2_PLACEMENT_3D('',#1373,#1106,#1107);
#933=AXIS2_PLACEMENT_3D('',#1375,#1109,#1110);
#934=AXIS2_PLACEMENT_3D('',#1377,#1112,#1113);
#935=AXIS2_PLACEMENT_3D('',#1380,#1116,#1117);
#936=AXIS2_PLACEMENT_3D('',#1382,#1119,#1120);
#937=AXIS2_PLACEMENT_3D('',#1385,#1123,#1124);
#938=AXIS2_PLACEMENT_3D('',#1387,#1126,#1127);
#939=AXIS2_PLACEMENT_3D('',#1388,#1128,#1129);
#940=AXIS2_PLACEMENT_3D('',#1390,#1131,#1132);
#941=AXIS2_PLACEMENT_3D('',#1399,#1138,#1139);
#942=AXIS2_PLACEMENT_3D('',#1401,#1141,#1142);
#943=AXIS2_PLACEMENT_3D('',#1403,#1144,#1145);
#944=AXIS2_PLACEMENT_3D('',#1405,#1147,#1148);
#945=AXIS2_PLACEMENT_3D('',#1406,#1149,#1150);
#946=AXIS2_PLACEMENT_3D('',#1408,#1152,#1153);
#947=AXIS2_PLACEMENT_3D('',#1410,#1155,#1156);
#948=AXIS2_PLACEMENT_3D('',#1412,#1158,#1159);
#949=AXIS2_PLACEMENT_3D('',#1414,#1161,#1162);
#950=AXIS2_PLACEMENT_3D('',#1416,#1164,#1165);
#951=AXIS2_PLACEMENT_3D('',#1418,#1167,#1168);
#952=DIRECTION('axis',(0.,0.,1.));
#953=DIRECTION('refdir',(1.,0.,0.));
#954=DIRECTION('center_axis',(-1.,-6.8001160258272E-16,7.33787627997539E-15));
#955=DIRECTION('ref_axis',(-6.80011602582894E-16,1.,-2.37587727269784E-14));
#956=DIRECTION('center_axis',(-1.,2.53224009966015E-48,1.72499690848415E-15));
#957=DIRECTION('ref_axis',(-6.80011602582894E-16,1.,-2.37587727269784E-14));
#958=DIRECTION('',(-1.,-6.8001160258272E-16,7.33787627997539E-15));
#959=DIRECTION('center_axis',(-1.,-6.8001160258272E-16,7.33787627997587E-15));
#960=DIRECTION('ref_axis',(-6.80011602582894E-16,1.,-2.37587727269784E-14));
#961=DIRECTION('',(-1.,-6.8001160258272E-16,7.33787627997539E-15));
#962=DIRECTION('center_axis',(6.80011602582894E-16,-1.,2.37587727269784E-14));
#963=DIRECTION('ref_axis',(7.33787627997585E-15,2.37587727269784E-14,1.));
#964=DIRECTION('',(1.72499690848415E-15,2.37587727269784E-14,1.));
#965=DIRECTION('',(-1.,-6.8001160258272E-16,7.33787627997539E-15));
#966=DIRECTION('',(7.33787627997585E-15,2.37587727269784E-14,1.));
#967=DIRECTION('center_axis',(-1.,-6.8001160258272E-16,7.33787627997539E-15));
#968=DIRECTION('ref_axis',(6.80011602582894E-16,-1.,2.37587727269784E-14));
#969=DIRECTION('center_axis',(-1.,2.53224009966015E-48,1.72499690848415E-15));
#970=DIRECTION('ref_axis',(6.80011602582894E-16,-1.,2.37587727269784E-14));
#971=DIRECTION('',(-1.,-6.8001160258272E-16,7.33787627997539E-15));
#972=DIRECTION('center_axis',(-1.,-6.8001160258272E-16,7.33787627997587E-15));
#973=DIRECTION('ref_axis',(6.80011602582894E-16,-1.,2.37587727269784E-14));
#974=DIRECTION('center_axis',(-6.80011602582894E-16,1.,-2.37587727269784E-14));
#975=DIRECTION('ref_axis',(-7.33787627997585E-15,-2.37587727269784E-14,
-1.));
#976=DIRECTION('',(-1.72499690848415E-15,-2.37587727269784E-14,-1.));
#977=DIRECTION('',(-7.33787627997585E-15,-2.37587727269784E-14,-1.));
#978=DIRECTION('center_axis',(1.,6.8001160258272E-16,-7.33787627997587E-15));
#979=DIRECTION('ref_axis',(-7.33787627997585E-15,-2.37587727269784E-14,
-1.));
#980=DIRECTION('center_axis',(-1.36565112105725E-15,4.93038065763133E-32,
-1.));
#981=DIRECTION('ref_axis',(-1.,-2.46519032881566E-32,1.36565112105725E-15));
#982=DIRECTION('',(1.,2.46519032881566E-32,-1.36565112105725E-15));
#983=DIRECTION('',(-4.93038065763132E-32,1.,4.93038065763133E-32));
#984=DIRECTION('',(-1.,-2.46519032881566E-32,1.36565112105725E-15));
#985=DIRECTION('',(-4.93038065763132E-32,1.,4.93038065763133E-32));
#986=DIRECTION('center_axis',(-0.707106781186547,9.85287982728387E-47,-0.707106781186548));
#987=DIRECTION('ref_axis',(-0.707106781186547,-4.55641819818442E-8,0.707106781186546));
#988=DIRECTION('',(0.707106781186547,4.55641819818442E-8,-0.707106781186546));
#989=DIRECTION('',(4.93038065763132E-32,-1.,-4.93038065763133E-32));
#990=DIRECTION('',(-0.707106781186547,-4.55641819818442E-8,0.707106781186546));
#991=DIRECTION('center_axis',(4.93038065763132E-32,-4.93038065763133E-32,
1.));
#992=DIRECTION('ref_axis',(1.,4.93038065763132E-32,-4.93038065763132E-32));
#993=DIRECTION('',(1.,4.31808427754722E-78,-4.93038065763132E-32));
#994=DIRECTION('',(-6.56858655152258E-47,-1.,-4.93038065763133E-32));
#995=DIRECTION('',(-1.,-4.31808427754722E-78,4.93038065763132E-32));
#996=DIRECTION('center_axis',(-1.,-4.93038065763132E-32,4.93038065763132E-32));
#997=DIRECTION('ref_axis',(-4.93038065763132E-32,1.,4.93038065763132E-32));
#998=DIRECTION('center_axis',(-1.,2.53224009966015E-48,1.72499690848415E-15));
#999=DIRECTION('ref_axis',(-4.93038065763132E-32,1.,4.93038065763132E-32));
#1000=DIRECTION('',(-1.,-4.93038065763132E-32,4.93038065763132E-32));
#1001=DIRECTION('center_axis',(1.,1.53664523913021E-48,-1.36343449770573E-15));
#1002=DIRECTION('ref_axis',(-4.93038065763132E-32,1.,4.93038065763132E-32));
#1003=DIRECTION('center_axis',(-1.,-4.93038065763133E-32,1.48029736616687E-15));
#1004=DIRECTION('ref_axis',(-4.93038065763132E-32,1.,4.93038065763133E-32));
#1005=DIRECTION('center_axis',(-1.,2.53224009966015E-48,1.72499690848415E-15));
#1006=DIRECTION('ref_axis',(-4.93038065763132E-32,1.,4.93038065763133E-32));
#1007=DIRECTION('',(-1.,-4.93038065763133E-32,1.48029736616687E-15));
#1008=DIRECTION('center_axis',(1.,1.53664523913021E-48,-1.36343449770573E-15));
#1009=DIRECTION('ref_axis',(-4.93038065763132E-32,1.,4.93038065763133E-32));
#1010=DIRECTION('center_axis',(4.93038065763147E-32,-1.,2.96059473233364E-14));
#1011=DIRECTION('ref_axis',(-4.93038065763118E-32,-2.96059473233364E-14,
-1.));
#1012=DIRECTION('',(-0.999999999999963,8.06689486575484E-21,2.72475485337554E-7));
#1013=DIRECTION('',(1.72499690848415E-15,2.96059473233364E-14,1.));
#1014=DIRECTION('',(1.,-5.5045666634786E-28,-1.85944386153964E-14));
#1015=DIRECTION('',(-1.36343449770573E-15,-2.96059473233364E-14,-1.));
#1016=DIRECTION('center_axis',(1.,1.53664523913021E-48,-1.36343449770573E-15));
#1017=DIRECTION('ref_axis',(-1.36343449770573E-15,-5.88742506800859E-93,
-1.));
#1018=DIRECTION('',(3.13717718080663E-29,-1.,2.3009372185357E-14));
#1019=DIRECTION('',(-1.36343449770573E-15,-5.88742506800859E-93,-1.));
#1020=DIRECTION('',(1.72499690848415E-15,7.44868202934296E-93,1.));
#1021=DIRECTION('',(-1.85944386153964E-14,-2.3009372185357E-14,-1.));
#1022=DIRECTION('',(6.56858471987397E-47,1.,4.93037931422348E-32));
#1023=DIRECTION('',(-1.49095624332843E-28,1.,-1.09352979247429E-13));
#1024=DIRECTION('',(1.36343449770573E-15,1.09352979247429E-13,1.));
#1025=DIRECTION('',(-1.49095624332843E-28,1.,-1.09352979247429E-13));
#1026=DIRECTION('',(-1.36343449770573E-15,-1.09352979247429E-13,-1.));
#1027=DIRECTION('',(1.49095624332843E-28,-1.,1.09352979247429E-13));
#1028=DIRECTION('',(1.36343449770573E-15,1.09352979247429E-13,1.));
#1029=DIRECTION('',(1.49095624332843E-28,-1.,1.09352979247429E-13));
#1030=DIRECTION('',(1.36343449770573E-15,1.09352979247429E-13,1.));
#1031=DIRECTION('',(1.49095624332843E-28,-1.,1.09352979247429E-13));
#1032=DIRECTION('',(-1.36343449770573E-15,-1.09352979247429E-13,-1.));
#1033=DIRECTION('',(1.49095624332843E-28,-1.,1.09352979247429E-13));
#1034=DIRECTION('',(-1.36343449770573E-15,-1.09352979247429E-13,-1.));
#1035=DIRECTION('',(1.49095624332843E-28,-1.,1.09352979247429E-13));
#1036=DIRECTION('',(1.36343449770573E-15,1.09352979247429E-13,1.));
#1037=DIRECTION('',(-1.49095624332843E-28,1.,-1.09352979247429E-13));
#1038=DIRECTION('',(-1.36343449770573E-15,-1.09352979247429E-13,-1.));
#1039=DIRECTION('',(-1.49095624332843E-28,1.,-1.09352979247429E-13));
#1040=DIRECTION('',(-1.36343449770573E-15,-1.09352979247429E-13,-1.));
#1041=DIRECTION('',(-1.49095624332843E-28,1.,-1.09352979247429E-13));
#1042=DIRECTION('',(1.36343449770573E-15,1.09352979247429E-13,1.));
#1043=DIRECTION('center_axis',(1.85944386153964E-14,2.3009372185357E-14,
1.));
#1044=DIRECTION('ref_axis',(-4.41762106923767E-28,1.,-2.3009372185357E-14));
#1045=DIRECTION('',(-3.9691095885902E-29,1.,-2.3009372185357E-14));
#1046=DIRECTION('',(1.,1.39157482443378E-29,-1.85944386153964E-14));
#1047=DIRECTION('center_axis',(-4.31808427754722E-78,1.,0.));
#1048=DIRECTION('ref_axis',(-1.36343449770573E-15,-5.88742506800859E-93,
-1.));
#1049=DIRECTION('',(-4.93038065763132E-32,8.75811540203011E-47,-1.));
#1050=DIRECTION('',(-0.999999999999963,-4.31808427754706E-78,2.72475485286437E-7));
#1051=DIRECTION('center_axis',(1.,-2.53224009966015E-48,-1.72499690848415E-15));
#1052=DIRECTION('ref_axis',(-2.43086534291452E-63,1.,0.));
#1053=DIRECTION('',(8.75811308465571E-47,1.,4.93037931422348E-32));
#1054=DIRECTION('',(1.72499690848415E-15,2.3009372185357E-14,1.));
#1055=DIRECTION('',(1.72499690848415E-15,7.44868202934296E-93,1.));
#1056=DIRECTION('',(-1.72499690848415E-15,5.69759708789543E-28,-1.));
#1057=DIRECTION('',(1.88633551135347E-28,-1.,1.09352979247429E-13));
#1058=DIRECTION('',(-1.72499690848415E-15,-1.09352979247429E-13,-1.));
#1059=DIRECTION('',(1.88633551135347E-28,-1.,1.09352979247429E-13));
#1060=DIRECTION('',(1.72499690848415E-15,1.09352979247429E-13,1.));
#1061=DIRECTION('',(1.88633551135347E-28,-1.,1.09352979247429E-13));
#1062=DIRECTION('',(1.72499690848415E-15,-5.69759708789543E-28,1.));
#1063=DIRECTION('',(8.75811540203011E-47,1.,4.93038065763088E-32));
#1064=DIRECTION('',(1.72499690848415E-15,1.09352979247429E-13,1.));
#1065=DIRECTION('',(-1.88633551135347E-28,1.,-1.09352979247429E-13));
#1066=DIRECTION('',(-1.72499690848415E-15,-1.09352979247429E-13,-1.));
#1067=DIRECTION('',(-1.88633551135347E-28,1.,-1.09352979247429E-13));
#1068=DIRECTION('center_axis',(2.72475485337554E-7,-4.9303793142233E-32,
0.999999999999963));
#1069=DIRECTION('ref_axis',(-4.93038065763132E-32,1.,4.93038065763134E-32));
#1070=DIRECTION('',(0.999999999999963,-6.27346934337474E-21,-2.72475485337554E-7));
#1071=DIRECTION('center_axis',(4.93038065763144E-32,-1.,2.30239771319325E-14));
#1072=DIRECTION('ref_axis',(-4.93038065763121E-32,-2.30239771319325E-14,
-1.));
#1073=DIRECTION('center_axis',(-4.31808427754722E-78,1.,0.));
#1074=DIRECTION('ref_axis',(1.,4.31808427754722E-78,-1.42159980623301E-15));
#1075=DIRECTION('center_axis',(-1.4210854715202E-14,-1.,-5.45246028338903E-28));
#1076=DIRECTION('ref_axis',(-9.2775446911588E-14,1.86366442553742E-27,-1.));
#1077=DIRECTION('',(1.,-1.4210854715202E-14,-9.2370555648813E-14));
#1078=DIRECTION('',(-1.,-4.93038065763178E-32,9.15933995315774E-14));
#1079=DIRECTION('',(-1.,-4.93038065763181E-32,9.79608551139824E-14));
#1080=DIRECTION('',(-1.,-4.93038065763187E-32,1.11022302462577E-13));
#1081=DIRECTION('',(9.2775446911588E-14,-1.86366442553742E-27,1.));
#1082=DIRECTION('',(-1.,-4.93038065763178E-32,9.15933995315774E-14));
#1083=DIRECTION('center_axis',(-1.,-4.93038065763187E-32,1.11022302462577E-13));
#1084=DIRECTION('ref_axis',(1.11022302462577E-13,-4.93038065763079E-32,
1.));
#1085=DIRECTION('',(-1.11022302462577E-13,-1.09352979247427E-13,-1.));
#1086=DIRECTION('',(-1.21406688409986E-26,1.,-1.09352979247429E-13));
#1087=DIRECTION('',(-1.11022302462577E-13,-1.11022302462538E-13,-1.));
#1088=DIRECTION('',(1.21406688409986E-26,-1.,1.09352979247429E-13));
#1089=DIRECTION('',(-1.11022302462577E-13,-1.09352979247427E-13,-1.));
#1090=DIRECTION('',(-4.93038065763132E-32,1.,4.93038065763133E-32));
#1091=DIRECTION('',(-2.03472157934064E-14,-1.,2.40576131023872E-29));
#1092=DIRECTION('center_axis',(-1.,-4.93038065763187E-32,1.11022302462577E-13));
#1093=DIRECTION('ref_axis',(1.11022302462577E-13,-4.93038065763079E-32,
1.));
#1094=DIRECTION('',(1.11022302462577E-13,1.09352979247427E-13,1.));
#1095=DIRECTION('',(4.93038065763132E-32,-1.,-4.93038065763133E-32));
#1096=DIRECTION('',(-7.10231206777286E-14,-3.06683820740839E-91,-1.));
#1097=DIRECTION('',(2.03472157934064E-14,1.,-2.40576131023872E-29));
#1098=DIRECTION('',(1.11022302462577E-13,1.09352979247427E-13,1.));
#1099=DIRECTION('',(1.21406688409986E-26,-1.,1.09352979247429E-13));
#1100=DIRECTION('',(1.11022302462577E-13,1.11022302462538E-13,1.));
#1101=DIRECTION('',(-1.21406688409986E-26,1.,-1.09352979247429E-13));
#1102=DIRECTION('center_axis',(-2.08983157576491E-14,-1.,1.09352979247429E-13));
#1103=DIRECTION('ref_axis',(-8.05345373729885E-15,-1.09352979247429E-13,
-1.));
#1104=DIRECTION('',(1.,-2.089831575765E-14,-8.09809735608938E-15));
#1105=DIRECTION('',(1.,-2.089831575765E-14,-8.09809735608938E-15));
#1106=DIRECTION('center_axis',(8.09809735609166E-15,1.09352979247429E-13,
1.));
#1107=DIRECTION('ref_axis',(-2.10875154144385E-14,-1.,1.09352979247429E-13));
#1108=DIRECTION('',(-1.,8.9902011023251E-28,8.09809735609166E-15));
#1109=DIRECTION('center_axis',(-4.93038065763187E-32,1.,-1.11022302462538E-13));
#1110=DIRECTION('ref_axis',(4.93038065763078E-32,1.11022302462538E-13,1.));
#1111=DIRECTION('',(1.,-8.9902011023251E-28,-8.09809735609166E-15));
#1112=DIRECTION('center_axis',(8.09809735609166E-15,1.09352979247429E-13,
1.));
#1113=DIRECTION('ref_axis',(-2.10875154144385E-14,-1.,1.09352979247429E-13));
#1114=DIRECTION('',(1.,-2.089831575765E-14,-8.09809735608938E-15));
#1115=DIRECTION('',(1.,-8.9902011023251E-28,-8.09809735609166E-15));
#1116=DIRECTION('center_axis',(2.08983157576491E-14,1.,-1.09352979247429E-13));
#1117=DIRECTION('ref_axis',(8.05345373729885E-15,1.09352979247429E-13,1.));
#1118=DIRECTION('',(1.,-2.089831575765E-14,-8.09809735608938E-15));
#1119=DIRECTION('center_axis',(2.08983157576491E-14,1.,-1.09352979247429E-13));
#1120=DIRECTION('ref_axis',(8.05345373729885E-15,1.09352979247429E-13,1.));
#1121=DIRECTION('',(1.,-2.089831575765E-14,-8.09809735608938E-15));
#1122=DIRECTION('',(1.,-2.089831575765E-14,-8.09809735608938E-15));
#1123=DIRECTION('center_axis',(-8.09809735609166E-15,-1.09352979247429E-13,
-1.));
#1124=DIRECTION('ref_axis',(2.10875154144385E-14,1.,-1.09352979247429E-13));
#1125=DIRECTION('',(-1.,8.9902011023251E-28,8.09809735609166E-15));
#1126=DIRECTION('center_axis',(4.93038065763187E-32,-1.,1.11022302462538E-13));
#1127=DIRECTION('ref_axis',(-4.93038065763078E-32,-1.11022302462538E-13,
-1.));
#1128=DIRECTION('center_axis',(-8.09809735609166E-15,-1.09352979247429E-13,
-1.));
#1129=DIRECTION('ref_axis',(2.10875154144385E-14,1.,-1.09352979247429E-13));
#1130=DIRECTION('',(1.,-2.089831575765E-14,-8.09809735608938E-15));
#1131=DIRECTION('center_axis',(8.09809735609166E-15,1.09352979247429E-13,
1.));
#1132=DIRECTION('ref_axis',(-2.10875154144385E-14,-1.,1.09352979247429E-13));
#1133=DIRECTION('',(-1.,-4.93038065763187E-32,1.11022302462577E-13));
#1134=DIRECTION('',(-1.,-4.93038065763177E-32,8.97974505211505E-14));
#1135=DIRECTION('',(-1.,-4.93038065763178E-32,9.29811783123588E-14));
#1136=DIRECTION('',(1.,-1.4210854715202E-14,-9.2370555648813E-14));
#1137=DIRECTION('',(1.,-2.089831575765E-14,-8.09809735608938E-15));
#1138=DIRECTION('center_axis',(2.08983157576491E-14,1.,-1.09352979247429E-13));
#1139=DIRECTION('ref_axis',(8.05345373729885E-15,1.09352979247429E-13,1.));
#1140=DIRECTION('',(1.,-2.089831575765E-14,-8.09809735608938E-15));
#1141=DIRECTION('center_axis',(8.09809735609166E-15,1.09352979247429E-13,
1.));
#1142=DIRECTION('ref_axis',(-2.10875154144385E-14,-1.,1.09352979247429E-13));
#1143=DIRECTION('',(1.,-2.089831575765E-14,-8.09809735608938E-15));
#1144=DIRECTION('center_axis',(-2.08983157576491E-14,-1.,1.09352979247429E-13));
#1145=DIRECTION('ref_axis',(-8.05345373729885E-15,-1.09352979247429E-13,
-1.));
#1146=DIRECTION('',(1.,-2.089831575765E-14,-8.09809735608938E-15));
#1147=DIRECTION('center_axis',(8.09809735609166E-15,1.09352979247429E-13,
1.));
#1148=DIRECTION('ref_axis',(-2.10875154144385E-14,-1.,1.09352979247429E-13));
#1149=DIRECTION('center_axis',(-2.08983157576491E-14,-1.,1.09352979247429E-13));
#1150=DIRECTION('ref_axis',(-8.05345373729885E-15,-1.09352979247429E-13,
-1.));
#1151=DIRECTION('',(1.,-2.089831575765E-14,-8.09809735608938E-15));
#1152=DIRECTION('center_axis',(1.4210854715202E-14,1.,5.45246028338903E-28));
#1153=DIRECTION('ref_axis',(9.2775446911588E-14,-1.86366442553742E-27,1.));
#1154=DIRECTION('',(-1.,-4.93038065763178E-32,9.29811783123588E-14));
#1155=DIRECTION('center_axis',(-8.09809735609166E-15,-1.09352979247429E-13,
-1.));
#1156=DIRECTION('ref_axis',(2.10875154144385E-14,1.,-1.09352979247429E-13));
#1157=DIRECTION('',(1.,-2.089831575765E-14,-8.09809735608938E-15));
#1158=DIRECTION('center_axis',(2.08983157576491E-14,1.,-1.09352979247429E-13));
#1159=DIRECTION('ref_axis',(8.05345373729885E-15,1.09352979247429E-13,1.));
#1160=DIRECTION('',(1.,-2.089831575765E-14,-8.09809735608938E-15));
#1161=DIRECTION('center_axis',(-8.09809735609166E-15,-1.09352979247429E-13,
-1.));
#1162=DIRECTION('ref_axis',(2.10875154144385E-14,1.,-1.09352979247429E-13));
#1163=DIRECTION('',(1.,-2.089831575765E-14,-8.09809735608938E-15));
#1164=DIRECTION('center_axis',(-2.08983157576491E-14,-1.,1.09352979247429E-13));
#1165=DIRECTION('ref_axis',(-8.05345373729885E-15,-1.09352979247429E-13,
-1.));
#1166=DIRECTION('',(1.,-2.089831575765E-14,-8.09809735608938E-15));
#1167=DIRECTION('center_axis',(-8.09809735609166E-15,-1.09352979247429E-13,
-1.));
#1168=DIRECTION('ref_axis',(2.10875154144385E-14,1.,-1.09352979247429E-13));
#1169=CARTESIAN_POINT('',(0.,0.,0.));
#1170=CARTESIAN_POINT('Origin',(145.504521501592,288.050015258792,27.9999969006626));
#1171=CARTESIAN_POINT('',(145.504521501592,287.550015258792,27.9999969006626));
#1172=CARTESIAN_POINT('',(145.504521501592,288.550015258792,27.9999969006626));
#1173=CARTESIAN_POINT('Origin',(145.504520504032,288.050015258792,27.9999969006626));
#1174=CARTESIAN_POINT('',(144.904521501593,287.550015258792,27.9999969006626));
#1175=CARTESIAN_POINT('',(145.504521501592,287.550015258792,27.9999969006626));
#1176=CARTESIAN_POINT('',(144.904521501593,288.550015258792,27.9999969006626));
#1177=CARTESIAN_POINT('Origin',(144.904521501593,288.050015258792,27.9999969006626));
#1178=CARTESIAN_POINT('',(145.504521501592,288.550015258792,27.9999969006626));
#1179=CARTESIAN_POINT('Origin',(145.504521501592,287.550015258792,25.0000021608543));
#1180=CARTESIAN_POINT('',(145.504521501592,287.550015258792,25.0000021608543));
#1181=CARTESIAN_POINT('',(145.504520504032,287.550015258792,26.0000008458061));
#1182=CARTESIAN_POINT('',(144.904521501592,287.550015258792,25.0000021608543));
#1183=CARTESIAN_POINT('',(145.504521501592,287.550015258792,25.0000021608543));
#1184=CARTESIAN_POINT('',(144.904521501593,287.550015258792,27.9999969006626));
#1185=CARTESIAN_POINT('Origin',(145.504521501592,288.050015258792,25.0000021608543));
#1186=CARTESIAN_POINT('',(145.504521501592,288.550015258792,25.0000021608543));
#1187=CARTESIAN_POINT('Origin',(145.504520504032,288.050015258792,25.0000021608543));
#1188=CARTESIAN_POINT('',(144.904521501592,288.550015258792,25.0000021608543));
#1189=CARTESIAN_POINT('',(145.504521501592,288.550015258792,25.0000021608543));
#1190=CARTESIAN_POINT('Origin',(144.904521501592,288.050015258792,25.0000021608543));
#1191=CARTESIAN_POINT('Origin',(145.504521501592,288.550015258792,27.9999969006626));
#1192=CARTESIAN_POINT('',(145.504520504032,288.550015258792,27.4999982157102));
#1193=CARTESIAN_POINT('',(144.904521501592,288.550015258792,25.0000021608543));
#1194=CARTESIAN_POINT('Origin',(144.904521501593,288.050015258792,49.5000006599278));
#1195=CARTESIAN_POINT('Origin',(145.504520504032,285.000000082015,22.3772073246222));
#1196=CARTESIAN_POINT('',(144.477312710168,285.000000082015,22.3772073246222));
#1197=CARTESIAN_POINT('',(145.504520504032,285.,22.3772073246222));
#1198=CARTESIAN_POINT('',(144.477312710168,285.000000082015,22.3772073246222));
#1199=CARTESIAN_POINT('',(144.477312710168,385.000030361181,22.3772073246222));
#1200=CARTESIAN_POINT('',(144.477312710168,285.000000082015,22.3772073246222));
#1201=CARTESIAN_POINT('',(145.504520504032,385.000030279165,22.3772073246222));
#1202=CARTESIAN_POINT('',(144.477312710168,385.000030361181,22.3772073246222));
#1203=CARTESIAN_POINT('',(145.504520504032,285.,22.3772073246222));
#1204=CARTESIAN_POINT('Origin',(144.477312710168,285.000000082015,22.3772073246222));
#1205=CARTESIAN_POINT('',(143.204520504032,285.,23.6499995307579));
#1206=CARTESIAN_POINT('',(143.204520504032,285.,23.6499995307579));
#1207=CARTESIAN_POINT('',(143.204520504032,385.000030279165,23.6499995307579));
#1208=CARTESIAN_POINT('',(143.204520504032,285.028811110752,23.6499995307579));
#1209=CARTESIAN_POINT('',(143.204520504032,385.000030279165,23.6499995307579));
#1210=CARTESIAN_POINT('Origin',(172.004520504032,285.057622139488,23.6499995307579));
#1211=CARTESIAN_POINT('',(142.004520504032,285.,23.6499995307579));
#1212=CARTESIAN_POINT('',(167.628390378026,285.,23.6499995307579));
#1213=CARTESIAN_POINT('',(142.004520504032,385.000030517584,23.6499995307579));
#1214=CARTESIAN_POINT('',(142.004520504032,310.02881869914,23.6499995307579));
#1215=CARTESIAN_POINT('',(172.004521501593,385.000030517584,23.6499995307579));
#1216=CARTESIAN_POINT('Origin',(145.754520504032,289.999999496106,32.594258444113));
#1217=CARTESIAN_POINT('',(145.504520504032,288.249999496106,32.594258444113));
#1218=CARTESIAN_POINT('Origin',(145.504520504032,289.999999496106,32.594258444113));
#1219=CARTESIAN_POINT('',(142.004520504032,288.249999496106,32.594258444113));
#1220=CARTESIAN_POINT('',(145.754520504032,288.249999496106,32.594258444113));
#1221=CARTESIAN_POINT('Origin',(142.004520504032,289.999999496106,32.594258444113));
#1222=CARTESIAN_POINT('Origin',(145.75451845701,390.825041149562,49.0954780578612));
#1223=CARTESIAN_POINT('',(145.504520504032,389.075041149562,49.0954780578612));
#1224=CARTESIAN_POINT('Origin',(145.504520504032,390.825041149562,49.0954780578612));
#1225=CARTESIAN_POINT('',(142.004520504032,389.075041149562,49.0954780578612));
#1226=CARTESIAN_POINT('',(145.75451845701,389.075041149562,49.0954780578612));
#1227=CARTESIAN_POINT('Origin',(142.004520504032,390.825041149562,49.0954780578612));
#1228=CARTESIAN_POINT('Origin',(158.750000990931,400.000059312593,45.2499999999906));
#1229=CARTESIAN_POINT('',(145.504520504032,400.000059312593,54.0954797267984));
#1230=CARTESIAN_POINT('',(142.004520504032,400.000059312593,54.0954806804626));
#1231=CARTESIAN_POINT('',(151.252261881124,400.000059312593,54.0954781606798));
#1232=CARTESIAN_POINT('',(145.504520504032,400.000059312593,43.4999999999909));
#1233=CARTESIAN_POINT('',(145.504520504032,400.000059312593,36.1249997653726));
#1234=CARTESIAN_POINT('',(142.004520504032,400.000059312593,43.4999999999909));
#1235=CARTESIAN_POINT('',(158.750000990931,400.000059312593,43.4999999999906));
#1236=CARTESIAN_POINT('',(142.004520504032,400.000059312593,35.2499997653733));
#1237=CARTESIAN_POINT('Origin',(142.004520504032,335.000015258792,25.249999530758));
#1238=CARTESIAN_POINT('',(142.004520504032,385.000030517584,43.4999999999912));
#1239=CARTESIAN_POINT('',(142.004520504032,365.000009130689,43.4999999999917));
#1240=CARTESIAN_POINT('',(142.004520504032,385.000030517584,25.249999530758));
#1241=CARTESIAN_POINT('',(142.004520504032,285.,47.5954780578613));
#1242=CARTESIAN_POINT('',(142.004520504032,285.,26.9999995307579));
#1243=CARTESIAN_POINT('',(142.004516676069,284.999981591111,54.0954806804637));
#1244=CARTESIAN_POINT('',(142.00451667607,284.999981591111,56.0502606489816));
#1245=CARTESIAN_POINT('',(142.004520504032,338.787520574781,54.0954806804626));
#1246=CARTESIAN_POINT('',(142.004520504032,368.017332416868,28.3442591517664));
#1247=CARTESIAN_POINT('',(142.004520504032,372.767332416868,28.3442591517658));
#1248=CARTESIAN_POINT('',(142.004520504032,351.50867383783,28.3442591517682));
#1249=CARTESIAN_POINT('',(142.004520504032,372.767332416868,30.4442591517658));
#1250=CARTESIAN_POINT('',(142.004520504032,372.767332416868,26.7971293412599));
#1251=CARTESIAN_POINT('',(142.004520504032,374.847332416868,30.4442591517656));
#1252=CARTESIAN_POINT('',(142.004520504032,353.88367383783,30.4442591517679));
#1253=CARTESIAN_POINT('',(142.004520504032,374.847332416869,36.3442591517656));
#1254=CARTESIAN_POINT('',(142.004520504032,374.847332416868,27.8471293412596));
#1255=CARTESIAN_POINT('',(142.004520504032,372.767332416869,36.3442591517658));
#1256=CARTESIAN_POINT('',(142.004520504032,354.973673837831,36.3442591517678));
#1257=CARTESIAN_POINT('',(142.004520504032,372.767332416869,38.4442591517658));
#1258=CARTESIAN_POINT('',(142.004520504032,372.767332416868,30.7971293412599));
#1259=CARTESIAN_POINT('',(142.004520504032,367.367332416869,38.4442591517664));
#1260=CARTESIAN_POINT('',(142.004520504032,353.883673837831,38.4442591517679));
#1261=CARTESIAN_POINT('',(142.004520504032,367.367332416869,39.8442591517664));
#1262=CARTESIAN_POINT('',(142.004520504032,367.367332416868,31.8471293412605));
#1263=CARTESIAN_POINT('',(142.004520504032,363.467332416869,39.8442591517669));
#1264=CARTESIAN_POINT('',(142.004520504032,351.183673837831,39.8442591517682));
#1265=CARTESIAN_POINT('',(142.004520504032,363.467332416869,38.4442591517669));
#1266=CARTESIAN_POINT('',(142.004520504032,363.467332416868,32.5471293412609));
#1267=CARTESIAN_POINT('',(142.004520504032,358.067332416869,38.4442591517674));
#1268=CARTESIAN_POINT('',(142.004520504032,349.233673837831,38.4442591517684));
#1269=CARTESIAN_POINT('',(142.004520504032,358.067332416869,36.3442591517674));
#1270=CARTESIAN_POINT('',(142.004520504032,358.067332416868,31.8471293412615));
#1271=CARTESIAN_POINT('',(142.004520504032,355.987332416869,36.3442591517677));
#1272=CARTESIAN_POINT('',(142.004520504032,346.533673837831,36.3442591517687));
#1273=CARTESIAN_POINT('',(142.004520504032,355.987332416868,30.4442591517677));
#1274=CARTESIAN_POINT('',(142.004520504032,355.987332416868,30.7971293412617));
#1275=CARTESIAN_POINT('',(142.004520504032,358.067332416868,30.4442591517674));
#1276=CARTESIAN_POINT('',(142.004520504032,345.44367383783,30.4442591517688));
#1277=CARTESIAN_POINT('',(142.004520504032,358.067332416868,28.3442591517674));
#1278=CARTESIAN_POINT('',(142.004520504032,358.067332416868,27.8471293412615));
#1279=CARTESIAN_POINT('',(142.004520504032,360.767332416868,28.3442591517672));
#1280=CARTESIAN_POINT('',(142.004520504032,346.53367383783,28.3442591517687));
#1281=CARTESIAN_POINT('',(142.004520504032,360.767332416868,27.5942591517672));
#1282=CARTESIAN_POINT('',(142.004520504032,360.767332416868,26.7971293412612));
#1283=CARTESIAN_POINT('',(142.004520504032,368.017332416868,27.5942591517664));
#1284=CARTESIAN_POINT('',(142.004520504032,347.88367383783,27.5942591517686));
#1285=CARTESIAN_POINT('',(142.004520504032,368.017332416868,26.4221293412604));
#1286=CARTESIAN_POINT('Origin',(158.750000990931,395.000003002585,43.4999999999907));
#1287=CARTESIAN_POINT('',(145.504520504032,385.000030517584,43.4999999999912));
#1288=CARTESIAN_POINT('',(145.504520504032,370.000016974083,43.4999999999916));
#1289=CARTESIAN_POINT('',(158.750000990931,385.000030517584,43.499999999991));
#1290=CARTESIAN_POINT('Origin',(163.25226025202,285.,25.2499995307579));
#1291=CARTESIAN_POINT('',(145.504532035897,285.,47.595477104194));
#1292=CARTESIAN_POINT('',(145.504520504032,285.,23.6499995307579));
#1293=CARTESIAN_POINT('',(152.628393422323,285.,47.5954751631164));
#1294=CARTESIAN_POINT('Origin',(145.504520504032,285.,26.9999995307579));
#1295=CARTESIAN_POINT('',(145.504520504032,284.999981591111,54.0954797267984));
#1296=CARTESIAN_POINT('',(145.504520504032,313.787512945385,54.0954797267984));
#1297=CARTESIAN_POINT('',(145.504520504032,284.999981591111,37.2977392711436));
#1298=CARTESIAN_POINT('',(145.504520504033,385.000030517584,55.3480002796588));
#1299=CARTESIAN_POINT('',(145.504520504032,376.317332444502,38.4442560913474));
#1300=CARTESIAN_POINT('',(145.504520504032,376.317332444502,28.3442594881749));
#1301=CARTESIAN_POINT('',(145.504520504032,376.317332444502,44.3473900925038));
#1302=CARTESIAN_POINT('',(145.504520504032,368.017332416868,28.3442591517663));
#1303=CARTESIAN_POINT('',(145.504520504032,356.508681681223,28.3442591517676));
#1304=CARTESIAN_POINT('',(145.504520504032,368.017332416868,27.5942591517663));
#1305=CARTESIAN_POINT('',(145.504520504032,368.017332416869,43.8473901075572));
#1306=CARTESIAN_POINT('',(145.504520504032,360.767332416868,27.5942591517671));
#1307=CARTESIAN_POINT('',(145.504520504032,352.883681681223,27.594259151768));
#1308=CARTESIAN_POINT('',(145.504520504032,360.767332416868,28.3442591517671));
#1309=CARTESIAN_POINT('',(145.504520504032,360.76733241687,44.222390107558));
#1310=CARTESIAN_POINT('',(145.504520504032,354.518279444654,28.3442618723625));
#1311=CARTESIAN_POINT('',(145.504520504032,351.533681681223,28.3442591517681));
#1312=CARTESIAN_POINT('',(145.504520504032,354.518279444654,38.4442584755351));
#1313=CARTESIAN_POINT('',(145.504520504032,354.518279444654,49.1473337485517));
#1314=CARTESIAN_POINT('',(145.504520504032,363.467332416869,38.4442591517668));
#1315=CARTESIAN_POINT('',(145.504520504032,320.009139722327,38.4442584755351));
#1316=CARTESIAN_POINT('',(145.504520504032,363.467332416869,39.8442591517668));
#1317=CARTESIAN_POINT('',(145.504520504032,363.467332416868,33.4221293412581));
#1318=CARTESIAN_POINT('',(145.504520504032,367.367332416869,39.8442591517664));
#1319=CARTESIAN_POINT('',(145.504520504032,326.183666208435,39.8442591517709));
#1320=CARTESIAN_POINT('',(145.504520504032,367.367332416869,38.4442591517664));
#1321=CARTESIAN_POINT('',(145.504520504032,367.367332416868,32.7221293412577));
#1322=CARTESIAN_POINT('',(145.504520504032,328.883666208435,38.4442591517706));
#1323=CARTESIAN_POINT('Origin',(143.754520361142,342.57502589077,54.0954802036306));
#1324=CARTESIAN_POINT('',(142.879519404151,284.999981591111,54.0954804420469));
#1325=CARTESIAN_POINT('Origin',(142.004516676069,284.999981591111,47.5954790115292));
#1326=CARTESIAN_POINT('Origin',(172.004522499153,385.000030517584,50.5954794959671));
#1327=CARTESIAN_POINT('Origin',(144.08222134937,354.518279444654,38.194146433753));
#1328=CARTESIAN_POINT('',(144.082221349369,354.518279444654,28.3442618723626));
#1329=CARTESIAN_POINT('',(144.082221349369,354.518279444654,28.3442618723626));
#1330=CARTESIAN_POINT('',(143.682221349369,354.518279444654,28.3442618723627));
#1331=CARTESIAN_POINT('',(144.082221349369,354.518279444654,28.3442618723626));
#1332=CARTESIAN_POINT('',(143.614221349369,354.518279444654,28.3442618723627));
#1333=CARTESIAN_POINT('',(143.682221349369,354.518279444654,28.3442618723627));
#1334=CARTESIAN_POINT('',(143.604221349369,354.518279444654,28.3442618723627));
#1335=CARTESIAN_POINT('',(143.614221349369,354.518279444654,28.3442618723627));
#1336=CARTESIAN_POINT('',(143.60422134937,354.518279444654,38.4442584755353));
#1337=CARTESIAN_POINT('',(143.60422134937,354.518279444654,33.3942027777051));
#1338=CARTESIAN_POINT('',(144.08222134937,354.518279444654,38.4442584755353));
#1339=CARTESIAN_POINT('Origin',(143.60422134937,365.417805944578,33.3942027777051));
#1340=CARTESIAN_POINT('',(143.604221349369,358.067332416868,30.4442591517675));
#1341=CARTESIAN_POINT('',(143.604221349369,358.067332416868,28.3442618723627));
#1342=CARTESIAN_POINT('',(143.60422134937,358.067332416868,31.9192309647361));
#1343=CARTESIAN_POINT('',(143.604221349369,355.987332416868,30.4442591517677));
#1344=CARTESIAN_POINT('',(143.604221349369,360.652569180723,30.4442591517671));
#1345=CARTESIAN_POINT('',(143.60422134937,355.987332416869,36.3442591517677));
#1346=CARTESIAN_POINT('',(143.60422134937,355.987332416869,34.8692309647363));
#1347=CARTESIAN_POINT('',(143.60422134937,358.067332416869,36.3442591517675));
#1348=CARTESIAN_POINT('',(143.60422134937,361.742569180724,36.344259151767));
#1349=CARTESIAN_POINT('',(143.60422134937,358.067332416869,38.4442584755353));
#1350=CARTESIAN_POINT('',(143.60422134937,358.067332416869,35.9192309647361));
#1351=CARTESIAN_POINT('',(143.60422134937,355.018279444654,38.4442584755353));
#1352=CARTESIAN_POINT('',(143.604221349369,365.417805944578,28.3442618723627));
#1353=CARTESIAN_POINT('Origin',(143.60422134937,365.417805944578,33.3942027777051));
#1354=CARTESIAN_POINT('',(143.60422134937,372.767332416868,28.3442594881751));
#1355=CARTESIAN_POINT('',(143.60422134937,372.767332416868,30.4442591517659));
#1356=CARTESIAN_POINT('',(143.60422134937,372.767332416868,30.8692309647345));
#1357=CARTESIAN_POINT('',(143.60422134937,376.317332444502,28.3442594881751));
#1358=CARTESIAN_POINT('',(143.60422134937,375.817332444502,28.3442594881751));
#1359=CARTESIAN_POINT('',(143.604221349371,376.317332444502,38.4442560913476));
#1360=CARTESIAN_POINT('',(143.60422134937,376.317332444502,38.194146433753));
#1361=CARTESIAN_POINT('',(143.60422134937,372.767332416869,38.4442560913476));
#1362=CARTESIAN_POINT('',(143.60422134937,365.417805944578,38.4442560913476));
#1363=CARTESIAN_POINT('',(143.60422134937,372.767332416869,36.3442591517659));
#1364=CARTESIAN_POINT('',(143.60422134937,372.767332416868,34.8692309647345));
#1365=CARTESIAN_POINT('',(143.60422134937,374.847332416869,36.3442591517656));
#1366=CARTESIAN_POINT('',(143.60422134937,370.182569180724,36.3442591517661));
#1367=CARTESIAN_POINT('',(143.60422134937,374.847332416868,30.4442591517656));
#1368=CARTESIAN_POINT('',(143.60422134937,374.847332416868,31.9192309647342));
#1369=CARTESIAN_POINT('',(143.60422134937,369.092569180723,30.4442591517662));
#1370=CARTESIAN_POINT('Origin',(132.432221349374,358.067332416869,38.4442591517675));
#1371=CARTESIAN_POINT('',(132.432221349374,358.067332416869,36.3442591517675));
#1372=CARTESIAN_POINT('',(132.432221349374,358.067332416869,38.4442591517675));
#1373=CARTESIAN_POINT('Origin',(132.432221349374,358.067332416869,36.3442591517675));
#1374=CARTESIAN_POINT('',(132.432221349374,355.987332416869,36.3442591517677));
#1375=CARTESIAN_POINT('Origin',(132.432221349374,355.987332416869,36.3442591517678));
#1376=CARTESIAN_POINT('',(132.432221349374,355.987332416868,30.4442591517678));
#1377=CARTESIAN_POINT('Origin',(132.432221349374,374.947332416869,36.3442591517657));
#1378=CARTESIAN_POINT('',(132.432221349374,372.767332416869,36.3442591517659));
#1379=CARTESIAN_POINT('',(132.432221349374,374.847332416869,36.3442591517657));
#1380=CARTESIAN_POINT('Origin',(132.432221349374,372.767332416869,36.3442591517659));
#1381=CARTESIAN_POINT('',(132.432221349374,372.767332416869,38.4442591517659));
#1382=CARTESIAN_POINT('Origin',(132.432221349374,372.767332416868,28.3442591517659));
#1383=CARTESIAN_POINT('',(132.432221349374,372.767332416868,30.4442591517659));
#1384=CARTESIAN_POINT('',(132.432221349374,372.767332416868,28.3442591517659));
#1385=CARTESIAN_POINT('Origin',(132.432221349374,372.767332416868,30.4442591517659));
#1386=CARTESIAN_POINT('',(132.432221349374,374.847332416868,30.4442591517657));
#1387=CARTESIAN_POINT('Origin',(132.432221349374,374.847332416868,30.4442591517657));
#1388=CARTESIAN_POINT('Origin',(132.432221349374,355.887332416868,30.4442591517678));
#1389=CARTESIAN_POINT('',(132.432221349374,358.067332416868,30.4442591517675));
#1390=CARTESIAN_POINT('Origin',(132.432221349374,372.767332416869,38.4442591517659));
#1391=CARTESIAN_POINT('',(143.61422134937,376.317332444502,38.4442560913476));
#1392=CARTESIAN_POINT('',(143.61422134937,376.317332444502,38.4442560913476));
#1393=CARTESIAN_POINT('',(143.68222134937,376.317332444502,38.4442560913476));
#1394=CARTESIAN_POINT('',(143.68222134937,376.317332444502,38.4442560913476));
#1395=CARTESIAN_POINT('',(144.08222134937,376.317332444502,38.4442560913475));
#1396=CARTESIAN_POINT('',(144.08222134937,376.317332444502,38.4442560913475));
#1397=CARTESIAN_POINT('',(144.08222134937,376.317332444502,38.4442560913475));
#1398=CARTESIAN_POINT('',(132.432221349374,367.367332416869,38.4442591517665));
#1399=CARTESIAN_POINT('Origin',(132.432221349374,367.367332416869,38.4442591517665));
#1400=CARTESIAN_POINT('',(132.432221349374,367.367332416869,39.8442591517665));
#1401=CARTESIAN_POINT('Origin',(132.432221349374,367.367332416869,39.8442591517665));
#1402=CARTESIAN_POINT('',(132.432221349374,363.467332416869,39.8442591517669));
#1403=CARTESIAN_POINT('Origin',(132.432221349374,363.467332416869,39.8442591517669));
#1404=CARTESIAN_POINT('',(132.432221349374,363.467332416869,38.4442591517669));
#1405=CARTESIAN_POINT('Origin',(132.432221349374,363.467332416869,38.4442591517669));
#1406=CARTESIAN_POINT('Origin',(132.432221349374,358.067332416868,30.4442591517675));
#1407=CARTESIAN_POINT('',(132.432221349374,358.067332416868,28.3442591517675));
#1408=CARTESIAN_POINT('Origin',(144.08222134937,376.317332444502,28.5942591216571));
#1409=CARTESIAN_POINT('',(144.08222134937,376.317332444502,28.344259488175));
#1410=CARTESIAN_POINT('Origin',(132.432221349374,368.017332416868,28.3442591517664));
#1411=CARTESIAN_POINT('',(132.432221349374,368.017332416868,28.3442591517664));
#1412=CARTESIAN_POINT('Origin',(132.432221349374,368.017332416868,27.5942591517664));
#1413=CARTESIAN_POINT('',(132.432221349374,368.017332416868,27.5942591517664));
#1414=CARTESIAN_POINT('Origin',(132.432221349374,360.767332416868,27.5942591517672));
#1415=CARTESIAN_POINT('',(132.432221349374,360.767332416868,27.5942591517672));
#1416=CARTESIAN_POINT('Origin',(132.432221349374,360.767332416868,28.3442591517672));
#1417=CARTESIAN_POINT('',(132.432221349374,360.767332416868,28.3442591517672));
#1418=CARTESIAN_POINT('Origin',(132.432221349374,358.067332416868,28.3442591517675));
#1419=UNCERTAINTY_MEASURE_WITH_UNIT(LENGTH_MEASURE(0.01),#1423,
'DISTANCE_ACCURACY_VALUE',
'Maximum model space distance between geometric entities at asserted c
onnectivities');
#1420=UNCERTAINTY_MEASURE_WITH_UNIT(LENGTH_MEASURE(0.01),#1423,
'DISTANCE_ACCURACY_VALUE',
'Maximum model space distance between geometric entities at asserted c
onnectivities');
#1421=(
GEOMETRIC_REPRESENTATION_CONTEXT(3)
GLOBAL_UNCERTAINTY_ASSIGNED_CONTEXT((#1419))
GLOBAL_UNIT_ASSIGNED_CONTEXT((#1423,#1425,#1426))
REPRESENTATION_CONTEXT('','3D')
);
#1422=(
GEOMETRIC_REPRESENTATION_CONTEXT(3)
GLOBAL_UNCERTAINTY_ASSIGNED_CONTEXT((#1420))
GLOBAL_UNIT_ASSIGNED_CONTEXT((#1423,#1425,#1426))
REPRESENTATION_CONTEXT('','3D')
);
#1423=(
LENGTH_UNIT()
NAMED_UNIT(*)
SI_UNIT(.MILLI.,.METRE.)
);
#1424=(
LENGTH_UNIT()
NAMED_UNIT(*)
SI_UNIT($,.METRE.)
);
#1425=(
NAMED_UNIT(*)
PLANE_ANGLE_UNIT()
SI_UNIT($,.RADIAN.)
);
#1426=(
NAMED_UNIT(*)
SI_UNIT($,.STERADIAN.)
SOLID_ANGLE_UNIT()
);
#1427=SHAPE_DEFINITION_REPRESENTATION(#1428,#1429);
#1428=PRODUCT_DEFINITION_SHAPE('',$,#1431);
#1429=SHAPE_REPRESENTATION('',(#901),#1421);
#1430=PRODUCT_DEFINITION_CONTEXT('part definition',#1435,'design');
#1431=PRODUCT_DEFINITION('Meanwell_PSU_Case_Rear_Rev_1',
'Meanwell_PSU_Case_Rear_Rev_1',#1432,#1430);
#1432=PRODUCT_DEFINITION_FORMATION('',$,#1437);
#1433=PRODUCT_RELATED_PRODUCT_CATEGORY('Meanwell_PSU_Case_Rear_Rev_1',
'Meanwell_PSU_Case_Rear_Rev_1',(#1437));
#1434=APPLICATION_PROTOCOL_DEFINITION('international standard',
'automotive_design',2009,#1435);
#1435=APPLICATION_CONTEXT(
'Core Data for Automotive Mechanical Design Process');
#1436=PRODUCT_CONTEXT('part definition',#1435,'mechanical');
#1437=PRODUCT('Meanwell_PSU_Case_Rear_Rev_1',
'Meanwell_PSU_Case_Rear_Rev_1',$,(#1436));
#1438=PRESENTATION_STYLE_ASSIGNMENT((#1439));
#1439=SURFACE_STYLE_USAGE(.BOTH.,#1440);
#1440=SURFACE_SIDE_STYLE('',(#1441));
#1441=SURFACE_STYLE_FILL_AREA(#1442);
#1442=FILL_AREA_STYLE('Steel - Satin',(#1443));
#1443=FILL_AREA_STYLE_COLOUR('Steel - Satin',#1444);
#1444=COLOUR_RGB('Steel - Satin',0.627450980392157,0.627450980392157,0.627450980392157);
ENDSEC;
END-ISO-10303-21;
